<?xml version="1.0" encoding="UTF-8"?>
<!DOCTYPE svg PUBLIC "-//W3C//DTD SVG 1.1//EN" "http://www.w3.org/Graphics/SVG/1.1/DTD/svg11.dtd">
<!-- Creator: CorelDRAW X8 -->
<svg xmlns="http://www.w3.org/2000/svg" xml:space="preserve" width="1.38893in" height="1.38893in" version="1.1" style="shape-rendering:geometricPrecision; text-rendering:geometricPrecision; image-rendering:optimizeQuality; fill-rule:evenodd; clip-rule:evenodd"
viewBox="0 0 263 263"
 xmlns:xlink="http://www.w3.org/1999/xlink">
 <defs>
  <style type="text/css">
   <![CDATA[
    .fil0 {fill:#16A086}
    .fil3 {fill:#BF4530}
    .fil2 {fill:#ECF0F5}
    .fil1 {fill:white;fill-rule:nonzero}
   ]]>
  </style>
 </defs>
 <g id="Layer_x0020_1">
  <metadata id="CorelCorpID_0Corel-Layer"/>
  <circle class="fil0" cx="132" cy="132" r="132"/>
  <path class="fil1" d="M187 58l0 147 -111 0 0 -147 111 0zm-18 104l-7 0 0 12 7 -6 0 -6zm-62 -80l0 6 6 0 0 -12 -6 6zm-6 6l0 -12 -6 6 0 6 6 0zm0 25l61 0c1,0 3,-2 3,-3 0,-2 -2,-3 -3,-3l-61 0c-2,0 -3,1 -3,3 0,1 1,3 3,3zm0 12l61 0c1,0 3,-1 3,-3 0,-2 -2,-3 -3,-3l-61 0c-2,0 -3,1 -3,3 0,2 1,3 3,3zm0 12l61 0c1,0 3,-1 3,-3 0,-1 -2,-3 -3,-3l-61 0c-2,0 -3,2 -3,3 0,2 1,3 3,3zm55 31l0 -6 -6 0 0 12 6 -6z"/>
  <path class="fil2" d="M162 174l0 -12 7 0 0 6 -7 6zm25 31l0 -147 -61 0c0,121 0,2 0,147l61 0zm-31 -37l-6 6 0 -12 6 0 0 6z"/>
  <g id="_827753815088">
   <path class="fil3" d="M126 137l36 0c1,0 3,-1 3,-3 0,-1 -2,-3 -3,-3l-36 0 0 6z"/>
   <path class="fil3" d="M126 125l36 0c1,0 3,-1 3,-3 0,-2 -2,-3 -3,-3l-36 0 0 6z"/>
   <path class="fil3" d="M126 113l36 0c1,0 3,-2 3,-3 0,-2 -2,-3 -3,-3l-36 0 0 6z"/>
   <polygon class="fil3" points="169,162 162,162 162,174 169,168 "/>
   <polygon class="fil3" points="156,168 156,162 150,162 150,174 "/>
  </g>
 </g>
</svg>
