<?xml version="1.0" encoding="UTF-8"?>
<!DOCTYPE svg PUBLIC "-//W3C//DTD SVG 1.1//EN" "http://www.w3.org/Graphics/SVG/1.1/DTD/svg11.dtd">
<!-- Creator: CorelDRAW X8 -->
<svg xmlns="http://www.w3.org/2000/svg" xml:space="preserve" width="0.864583in" height="0.864583in" version="1.1" style="shape-rendering:geometricPrecision; text-rendering:geometricPrecision; image-rendering:optimizeQuality; fill-rule:evenodd; clip-rule:evenodd"
viewBox="0 0 116 116"
 xmlns:xlink="http://www.w3.org/1999/xlink">
 <defs>
  <style type="text/css">
   <![CDATA[
    .fil0 {fill:#DD4B3A}
    .fil1 {fill:#ECF0F5}
   ]]>
  </style>
 </defs>
 <g id="Layer_x0020_1">
  <metadata id="CorelCorpID_0Corel-Layer"/>
  <circle class="fil0" cx="58" cy="58" r="58"/>
  <path class="fil1" d="M24 76l27 0 0 3c0,0 1,1 2,1l11 0c0,0 1,-1 1,-1l0 -3 27 0c1,0 1,1 1,2l0 4c0,1 0,1 -1,1l-68 0c-1,0 -1,0 -1,-1l0 -4c0,-1 0,-2 1,-2zm58 -43l-48 0c-2,0 -4,2 -4,4l0 37 55 0 0 -37c0,-2 -1,-4 -3,-4zm-7 20l1 -1 0 7 1 0c0,0 0,0 0,0l0 0c0,1 0,1 0,1l-1 0 0 1 1 3 -2 0 0 -3 0 -1 0 0c0,0 0,0 0,-1l0 0c0,0 0,0 0,0l0 0 0 -6zm-8 4l0 3c0,3 -2,5 -5,5l-8 0c-2,0 -5,-2 -5,-5l0 -3 9 5 9 -5zm-27 -5l18 -10 18 10 -18 9 -18 -9zm-6 -15l48 0 0 34 -48 0 0 -34z"/>
 </g>
</svg>
