<?xml version="1.0" encoding="UTF-8"?>
<!DOCTYPE svg PUBLIC "-//W3C//DTD SVG 1.1//EN" "http://www.w3.org/Graphics/SVG/1.1/DTD/svg11.dtd">
<!-- Creator: CorelDRAW X8 -->
<svg xmlns="http://www.w3.org/2000/svg" xml:space="preserve" width="0.864583in" height="0.864583in" version="1.1" style="shape-rendering:geometricPrecision; text-rendering:geometricPrecision; image-rendering:optimizeQuality; fill-rule:evenodd; clip-rule:evenodd"
viewBox="0 0 791 791"
 xmlns:xlink="http://www.w3.org/1999/xlink">
 <defs>
  <style type="text/css">
   <![CDATA[
    .fil1 {fill:#D6850C}
    .fil0 {fill:#F39C13}
    .fil2 {fill:white}
   ]]>
  </style>
 </defs>
 <g id="Layer_x0020_1">
  <metadata id="CorelCorpID_0Corel-Layer"/>
  <circle class="fil0" cx="395" cy="395" r="395"/>
  <path class="fil1" d="M745 211l-571 0 0 379 565 0c33,-57 52,-124 52,-195 0,-66 -17,-129 -46,-184z"/>
  <path class="fil2" d="M220 273l8 0c-6,0 -11,-5 -11,-11l0 0c0,-5 5,-10 11,-10l65 0c6,0 10,5 10,10l0 0c0,6 -4,11 -10,11l157 0 0 56 -179 0 -51 0 -18 0 0 185 17 0c-4,0 -7,-4 -7,-7l0 -17c0,-4 3,-7 7,-7l1 0 8 0c-6,0 -11,-5 -11,-10 0,-6 5,-11 11,-11l65 0c6,0 10,5 10,11 0,5 -4,10 -10,10l157 0 0 56 -248 0 0 41c0,3 -3,6 -6,6l-16 0c-3,0 -6,-3 -6,-6l0 -369c0,-4 3,-6 6,-6l16 0c3,0 6,2 6,6l0 92 17 0c-4,0 -7,-3 -7,-7l0 -16c0,-4 3,-7 7,-7l1 0zm352 0l-19 0 0 31 0 25 36 0 0 184 -17 0c5,0 10,-4 10,-10l0 -11c0,-5 -5,-10 -10,-10l-19 0 0 31 0 26 36 0 0 41c0,3 2,6 6,6l16 0c3,0 6,-3 6,-6l0 -41 0 -25 0 -185 0 -26 0 -92c0,-4 -3,-6 -6,-6l-16 0c-4,0 -6,2 -6,6l0 93 -17 0c5,0 10,-5 10,-10l0 -12c0,-5 -5,-9 -10,-9zm-112 -47l11 0 0 30 61 0 0 -30 11 0 0 335 -11 0 0 -46 -61 0 0 46 -11 0 0 -335zm72 281l0 -43 -61 0 0 43 61 0zm0 -50l0 -43 -61 0 0 43 61 0zm0 -50l0 -43 -61 0 0 43 61 0zm0 -50l0 -43 -61 0 0 43 61 0zm0 -51l0 -43 -61 0 0 43 61 0z"/>
 </g>
</svg>
