<?xml version="1.0" encoding="UTF-8"?>
<!DOCTYPE svg PUBLIC "-//W3C//DTD SVG 1.1//EN" "http://www.w3.org/Graphics/SVG/1.1/DTD/svg11.dtd">
<!-- Creator: CorelDRAW X8 -->
<svg xmlns="http://www.w3.org/2000/svg" xml:space="preserve" width="0.228445in" height="0.220772in" version="1.1" style="shape-rendering:geometricPrecision; text-rendering:geometricPrecision; image-rendering:optimizeQuality; fill-rule:evenodd; clip-rule:evenodd"
viewBox="0 0 21 21"
 xmlns:xlink="http://www.w3.org/1999/xlink">
 <defs>
  <style type="text/css">
   <![CDATA[
    .fil3 {fill:#222D32}
    .fil2 {fill:#646B7D}
    .fil1 {fill:#999999}
    .fil0 {fill:#CACACA}
   ]]>
  </style>
 </defs>
 <g id="Layer_x0020_1">
  <metadata id="CorelCorpID_0Corel-Layer"/>
  <g id="_41697516896">
   <path class="fil0" d="M1 2l3 0 0 1c0,1 1,2 2,2l0 0c1,0 1,-1 1,-2l0 -1 7 0 0 1c0,1 0,2 1,2l0 0c1,0 2,-1 2,-2l0 -1 3 0c1,0 1,0 1,1l0 16c0,1 0,2 -1,2l-19 0c0,0 -1,-1 -1,-2l0 -16c0,-1 1,-1 1,-1z"/>
   <path class="fil1" d="M15 5l0 0zm-9 0c-1,0 -2,-1 -2,-2l0 -1 -3 0c0,0 -1,0 -1,1l0 3 21 0 0 -3c0,-1 0,-1 -1,-1l-3 0 0 1c0,1 -1,2 -2,2 -1,0 -1,-1 -1,-2l0 -1 -7 0 0 1c0,1 0,2 -1,2z"/>
   <path class="fil2" d="M6 0l0 0c1,0 1,1 1,1l0 2c0,1 0,1 -1,1l0 0c-1,0 -1,0 -1,-1l0 -2c0,0 0,-1 1,-1zm9 0l0 0c1,0 1,1 1,1l0 2c0,1 0,1 -1,1l0 0c0,0 -1,0 -1,-1l0 -2c0,0 1,-1 1,-1z"/>
   <rect class="fil3" x="15" y="7" width="3.01558" height="3.01558"/>
   <rect class="fil3" x="15" y="11" width="3.01558" height="3.01558"/>
   <rect class="fil3" x="15" y="15" width="3.01558" height="3.01558"/>
   <rect class="fil3" x="11" y="7" width="3.01558" height="3.01558"/>
   <rect class="fil1" x="11" y="11" width="3.01558" height="3.01558"/>
   <rect class="fil3" x="11" y="15" width="3.01558" height="3.01558"/>
   <rect class="fil3" x="7" y="7" width="3.01558" height="3.01558"/>
   <rect class="fil3" x="7" y="11" width="3.01558" height="3.01558"/>
   <rect class="fil3" x="7" y="15" width="3.01558" height="3.01558"/>
   <rect class="fil3" x="3" y="11" width="3.01558" height="3.01558"/>
   <rect class="fil3" x="3" y="15" width="3.01558" height="3.01558"/>
  </g>
 </g>
</svg>
