<?xml version="1.0" encoding="UTF-8"?>
<!DOCTYPE svg PUBLIC "-//W3C//DTD SVG 1.1//EN" "http://www.w3.org/Graphics/SVG/1.1/DTD/svg11.dtd">
<!-- Creator: CorelDRAW X8 -->
<svg xmlns="http://www.w3.org/2000/svg" xml:space="preserve" width="1.40861in" height="1.40861in" version="1.1" style="shape-rendering:geometricPrecision; text-rendering:geometricPrecision; image-rendering:optimizeQuality; fill-rule:evenodd; clip-rule:evenodd"
viewBox="0 0 473 473"
 xmlns:xlink="http://www.w3.org/1999/xlink">
 <defs>
  <style type="text/css">
   <![CDATA[
    .fil9 {fill:#0B4D3F}
    .fil8 {fill:#16A086}
    .fil7 {fill:#17ECC0}
    .fil12 {fill:#374950}
    .fil11 {fill:#5D5D5E}
    .fil10 {fill:#7A7A7A}
    .fil6 {fill:#A82127}
    .fil3 {fill:#E99D18}
    .fil14 {fill:#ECF0F5}
    .fil1 {fill:#FEE187}
    .fil5 {fill:#FF314F}
    .fil4 {fill:#FF6262}
    .fil2 {fill:#FFC61B}
    .fil0 {fill:#121149;fill-rule:nonzero}
    .fil13 {fill:white;fill-rule:nonzero}
   ]]>
  </style>
 </defs>
 <g id="Layer_x0020_1">
  <metadata id="CorelCorpID_0Corel-Layer"/>
  <path class="fil0" d="M237 0c65,0 124,26 167,69 43,43 69,102 69,168 0,65 -26,124 -69,167 -43,43 -102,69 -167,69 -66,0 -125,-26 -168,-69 -43,-43 -69,-102 -69,-167 0,-66 26,-125 69,-168 43,-43 102,-69 168,-69zm162 74c-41,-42 -99,-67 -162,-67 -64,0 -121,25 -163,67 -42,42 -67,99 -67,163 0,63 25,121 67,162 42,42 99,68 163,68 63,0 121,-26 162,-68 42,-41 68,-99 68,-162 0,-64 -26,-121 -68,-163z"/>
  <g id="_503304083744">
   <g>
    <rect class="fil1" x="169" y="111" width="58.2175" height="115.123" rx="8" ry="8"/>
    <path class="fil2" d="M227 168l-58 0 0 50c0,4 4,8 8,8l43 0c4,0 7,-4 7,-8l0 -50z"/>
    <circle class="fil3" cx="199" cy="169" r="9"/>
   </g>
   <g>
    <rect class="fil4" x="246" y="111" width="58.2175" height="115.123" rx="8" ry="8"/>
    <path class="fil5" d="M304 168l-58 0 0 50c0,4 3,8 8,8l42 0c4,0 8,-4 8,-8l0 -50z"/>
    <circle class="fil6" cx="276" cy="169" r="9"/>
   </g>
   <g>
    <rect class="fil7" x="169" y="247" width="58.2175" height="115.123" rx="8" ry="8"/>
    <path class="fil8" d="M227 305l-58 0 0 49c0,5 4,8 8,8l43 0c4,0 7,-3 7,-8l0 -49z"/>
    <circle class="fil9" cx="199" cy="305" r="9"/>
   </g>
   <g>
    <rect class="fil10" x="246" y="247" width="58.2175" height="115.123" rx="8" ry="8"/>
    <path class="fil11" d="M304 305l-58 0 0 49c0,5 3,8 8,8l42 0c4,0 8,-3 8,-8l0 -49z"/>
    <circle class="fil12" cx="276" cy="305" r="9"/>
   </g>
   <path class="fil13" d="M199 308l-1 0c-1,0 -2,-1 -3,-2 0,0 0,0 0,0l-11 -12c-2,-2 -2,-5 0,-6 1,-2 4,-1 6,1l4 4 0 -122c0,0 0,-1 0,-1 0,-1 0,-2 1,-3 1,-1 2,-2 4,-2 1,0 2,0 2,0l63 0 -5 -4c-2,-2 -2,-5 -1,-6 2,-2 5,-2 7,0l11 11c1,0 1,1 2,1 0,1 0,2 0,3 0,1 0,2 0,2 -1,1 -1,1 -2,2l-11 11c-2,2 -5,2 -7,0 -1,-2 -1,-5 1,-7l5 -4 -61 0 0 119 4 -4c2,-2 5,-3 7,-1 2,1 1,4 0,6l-12 12c0,0 0,1 -1,1 -1,1 -1,1 -2,1 0,0 0,0 0,0z"/>
   <rect class="fil14" x="200" y="174" width="2.23553" height="119.848" rx="1" ry="2"/>
   <rect class="fil14" transform="matrix(0.000373794 -0.187331 0.192166 0.00140749 201.517 173.099)" width="11.9335" height="325.519" rx="6" ry="6"/>
  </g>
 </g>
</svg>
