<?xml version="1.0" encoding="UTF-8"?>
<!DOCTYPE svg PUBLIC "-//W3C//DTD SVG 1.1//EN" "http://www.w3.org/Graphics/SVG/1.1/DTD/svg11.dtd">
<!-- Creator: CorelDRAW X8 -->
<svg xmlns="http://www.w3.org/2000/svg" xml:space="preserve" width="1.38893in" height="1.38893in" version="1.1" style="shape-rendering:geometricPrecision; text-rendering:geometricPrecision; image-rendering:optimizeQuality; fill-rule:evenodd; clip-rule:evenodd"
viewBox="0 0 1223 1223"
 xmlns:xlink="http://www.w3.org/1999/xlink">
 <defs>
  <style type="text/css">
   <![CDATA[
    .fil0 {fill:#A5445E}
    .fil2 {fill:#D0D0D0}
    .fil1 {fill:white}
   ]]>
  </style>
 </defs>
 <g id="Layer_x0020_1">
  <metadata id="CorelCorpID_0Corel-Layer"/>
  <circle class="fil0" cx="611" cy="611" r="611"/>
  <g id="_827753809680">
   <path class="fil1" d="M843 520l0 397 -469 0 0 -397 -15 0c-22,0 -40,-18 -40,-40l0 0c0,-22 18,-40 40,-40l505 0c22,0 40,18 40,40l0 0c0,22 -18,40 -40,40l-21 0zm-300 -215l118 0c10,0 17,8 17,18l0 0 0 1 167 0 14 39 16 0c16,0 29,13 29,29l0 0c0,16 -13,30 -29,30l-527 0c-16,0 -29,-14 -29,-30l0 0c0,-16 13,-29 29,-29l26 0 17 -39 134 0 0 -1 0 0c0,-10 8,-18 18,-18z"/>
   <path class="fil2" d="M470 855l0 0c22,0 40,-18 40,-39l0 -238c0,-21 -18,-39 -40,-39l0 0c-22,0 -40,18 -40,39l0 238c0,21 18,39 40,39zm279 0l0 0c21,0 39,-18 39,-39l0 -238c0,-21 -18,-39 -39,-39l0 0c-22,0 -40,18 -40,39l0 238c0,21 18,39 40,39zm-140 0l0 0c22,0 40,-18 40,-39l0 -238c0,-21 -18,-39 -40,-39l0 0c-22,0 -39,18 -39,39l0 238c0,21 17,39 39,39z"/>
  </g>
 </g>
</svg>
