<?xml version="1.0" encoding="UTF-8"?>
<!DOCTYPE svg PUBLIC "-//W3C//DTD SVG 1.1//EN" "http://www.w3.org/Graphics/SVG/1.1/DTD/svg11.dtd">
<!-- Creator: CorelDRAW X8 -->
<svg xmlns="http://www.w3.org/2000/svg" xml:space="preserve" width="1.0119in" height="1.0119in" version="1.1" style="shape-rendering:geometricPrecision; text-rendering:geometricPrecision; image-rendering:optimizeQuality; fill-rule:evenodd; clip-rule:evenodd"
viewBox="0 0 310 310"
 xmlns:xlink="http://www.w3.org/1999/xlink">
 <defs>
  <style type="text/css">
   <![CDATA[
    .fil2 {fill:#134151}
    .fil3 {fill:#134151}
    .fil1 {fill:white}
    .fil0 {fill:#1F6883;fill-rule:nonzero}
   ]]>
  </style>
 </defs>
 <g id="Layer_x0020_1">
  <metadata id="CorelCorpID_0Corel-Layer"/>
  <path class="fil0" d="M265 45c-28,-28 -67,-45 -110,-45 -43,0 -82,17 -110,45 -28,28 -45,67 -45,110 0,43 17,82 45,110 28,28 67,45 110,45 43,0 82,-17 110,-45 28,-28 45,-67 45,-110 0,-43 -17,-82 -45,-110z"/>
  <path class="fil1" d="M108 202l10 0c2,0 3,1 3,3l0 9c0,2 -1,3 -3,3l-10 0c-1,0 -2,-1 -2,-3l0 -9c0,-2 1,-3 2,-3zm-18 -128l32 0c-2,0 -4,2 -4,5l0 20c0,2 2,4 4,4l34 0 33 0c3,0 5,-2 5,-4l0 -5 0 -15c0,-3 -2,-5 -5,-5l31 0c4,0 8,4 8,8l0 158c0,4 -4,7 -8,7l-130 0c-4,0 -8,-3 -8,-7l0 -158c0,-4 4,-8 8,-8zm62 32l4 0 4 0c1,0 1,1 1,1l0 10 10 0c1,0 1,1 1,1l0 9c0,0 0,1 -1,1l-10 0 0 10c0,0 0,1 -1,1l-4 0 -4 0c-1,0 -2,-1 -2,-1l0 -10 -9 0c-1,0 -2,-1 -2,-1l0 -9c0,0 1,-1 2,-1l9 0 0 -10c0,0 1,-1 2,-1zm37 105l-33 0 0 3 32 0c0,-1 1,-2 1,-3zm-33 -10l48 0 0 -3 -48 0 0 3zm0 -13l48 0 0 -3 -48 0 0 3zm0 -14l48 0 0 -3 -48 0 0 3zm0 -13l48 0 0 -3 -48 0 0 3zm0 -13l48 0 0 -3 -48 0 0 3zm-48 -7l10 0c2,0 3,1 3,2l0 10c0,1 -1,2 -3,2l-10 0c-1,0 -2,-1 -2,-2l0 -10c0,-1 1,-2 2,-2zm0 21l10 0c2,0 3,1 3,2l0 9c0,2 -1,3 -3,3l-10 0c-1,0 -2,-1 -2,-3l0 -9c0,-1 1,-2 2,-2zm0 20l10 0c2,0 3,1 3,2l0 10c0,1 -1,2 -3,2l-10 0c-1,0 -2,-1 -2,-2l0 -10c0,-1 1,-2 2,-2z"/>
  <path class="fil2" d="M143 74l-21 0c-2,0 -4,2 -4,5l0 11 0 4c0,3 2,5 4,5l27 0 7 0 0 0 33 0c3,0 5,-2 5,-5l0 -15c0,-3 -2,-5 -5,-5l-20 0c-1,-6 -6,-11 -13,-11l0 0 0 0 0 0 0 0 0 0 0 0 0 0 0 0 0 0 0 0 0 0 0 0 0 0 0 0 0 0 0 0 0 0 0 0 0 0 0 0 0 0 0 0 0 0 0 0 0 0 0 0 0 0 -1 0 0 0 0 0 0 0 0 0 0 0 0 0 0 0 0 0 0 0 0 0 0 0 -1 0 0 0 0 0 0 0 0 0 0 0 0 0 0 0 0 0 0 0 0 0c-1,0 -1,0 -1,0l0 0 0 0 0 0 -1 0 0 0 0 0 0 0 0 0 0 0 0 0 0 0c-1,1 -1,1 -1,1l0 0 -1 0 0 0 0 0 0 0 0 0 0 0 0 0 0 0 0 0 0 0 0 0 0 0 0 0 -1 0 0 1 0 0 0 0 0 0 0 0 0 0 0 0 0 0 -1 0 0 0 0 0 0 0 0 0 0 0 0 0 0 1 0 0 0 0 0 0 -1 0 0 0 0 0 0 0 0 0 0 0 0 0 0 0 0 0 0 0 0 1 0 0 -1 0 0 0 0 0 0 0 0 0 0 0 0 0 0 0 0 0 0 1 0 0 0 0 0 0 0 0 -1 0 0 0 0 0 0 0 0 0 0 0 0 0 0 1 0 0 0 0 0 0 0 0 0 0 0 0 0 0 0 0 0 0 -1 0 0 1 0 0 0 0 0 0 0 0 0 0 0 0 0 0 0 1 0 0 0 0 0 0 0 0 0 0 0 0 0 0 0 0 0 0 0 0 0 1 0 0 0 0 -1 0 0 0 0 0 0 0 0 0 0 0 0 0 0 0 0 1 0 0 0 0 0 0 0 0 0 0 0 0 0 0c0,1 0,1 0,1l0 0 0 0 0 0zm13 -4c2,0 4,2 4,4 0,2 -2,4 -4,4 -3,0 -4,-2 -4,-4 0,-2 1,-4 4,-4z"/>
  <path class="fil3" d="M85 246l75 64c41,-1 78,-18 105,-45 3,-4 6,-7 9,-11 23,-27 36,-61 36,-99 0,-1 0,-2 0,-2l-82 -71 0 132 0 26c0,4 -4,7 -8,7l-130 0c-2,0 -4,0 -5,-1 0,0 0,0 0,0zm37 -143l34 0 33 0c3,0 5,-2 5,-4l0 -5c0,3 -2,5 -5,5l-67 0c-2,0 -4,-2 -4,-5l0 5c0,2 2,4 4,4zm19 25l9 0 0 10c0,0 1,1 2,1l4 0 4 0c1,0 1,-1 1,-1l0 -10 10 0c1,0 1,-1 1,-1l0 -9c0,0 0,-1 -1,-1l-10 0 0 -10c0,0 0,-1 -1,-1l-4 0 -4 0c-1,0 -2,1 -2,1l0 10 -9 0c-1,0 -2,1 -2,1l0 9c0,0 1,1 2,1zm52 57l4 3 7 0 0 -3 -11 0zm-15 -14l4 3 22 0 0 -3 -26 0zm-12 -10l38 0 0 -3 -42 0 4 3zm-10 -13l48 0 0 -3 -48 0 0 3z"/>
 </g>
</svg>
