<?xml version="1.0" encoding="UTF-8"?>
<!DOCTYPE svg PUBLIC "-//W3C//DTD SVG 1.1//EN" "http://www.w3.org/Graphics/SVG/1.1/DTD/svg11.dtd">
<!-- Creator: CorelDRAW X8 -->
<svg xmlns="http://www.w3.org/2000/svg" xml:space="preserve" width="1.40861in" height="1.40861in" version="1.1" style="shape-rendering:geometricPrecision; text-rendering:geometricPrecision; image-rendering:optimizeQuality; fill-rule:evenodd; clip-rule:evenodd"
viewBox="0 0 1274 1274"
 xmlns:xlink="http://www.w3.org/1999/xlink">
 <defs>
  <style type="text/css">
   <![CDATA[
    .fil1 {fill:#374950}
    .fil0 {fill:#F39C13;fill-rule:nonzero}
   ]]>
  </style>
 </defs>
 <g id="Layer_x0020_1">
  <metadata id="CorelCorpID_0Corel-Layer"/>
  <path class="fil0" d="M637 0c176,0 335,71 450,187 115,115 187,274 187,450 0,176 -72,335 -187,450 -115,115 -274,187 -450,187 -176,0 -335,-72 -450,-187 -116,-115 -187,-274 -187,-450 0,-176 71,-335 187,-450 115,-116 274,-187 450,-187zm438 199c-112,-112 -267,-181 -438,-181 -171,0 -326,69 -438,181 -112,112 -181,267 -181,438 0,171 69,326 181,438 112,112 267,181 438,181 171,0 326,-69 438,-181 112,-112 181,-267 181,-438 0,-171 -69,-326 -181,-438z"/>
  <path class="fil1" d="M607 400l-152 110c-14,9 -33,7 -43,-7l0 0c-10,-14 -7,-33 6,-43l201 -144c5,-4 12,-6 19,-6 6,0 13,2 18,6l201 144c13,10 16,29 6,43l0 0c-10,14 -29,16 -42,7l-153 -110 0 384c0,17 -14,31 -30,31l0 0c-17,0 -31,-14 -31,-31l0 -384zm-185 502l430 0 0 -92c0,-16 14,-30 30,-30l0 0c17,0 31,14 31,30l0 123 0 0c0,17 -14,30 -31,30l0 0c-1,0 -2,0 -3,0l-485 0c-1,0 -2,0 -3,0l0 0c-17,0 -30,-13 -30,-30l0 0 0 -123c0,-16 13,-30 30,-30l0 0c17,0 31,14 31,30l0 92z"/>
 </g>
</svg>
