<?xml version="1.0" encoding="UTF-8"?>
<!DOCTYPE svg PUBLIC "-//W3C//DTD SVG 1.1//EN" "http://www.w3.org/Graphics/SVG/1.1/DTD/svg11.dtd">
<!-- Creator: CorelDRAW X8 -->
<svg xmlns="http://www.w3.org/2000/svg" xml:space="preserve" width="1.38893in" height="1.38893in" version="1.1" style="shape-rendering:geometricPrecision; text-rendering:geometricPrecision; image-rendering:optimizeQuality; fill-rule:evenodd; clip-rule:evenodd"
viewBox="0 0 462 462"
 xmlns:xlink="http://www.w3.org/1999/xlink">
 <defs>
  <style type="text/css">
   <![CDATA[
    .fil0 {fill:#7A75B5}
    .fil1 {fill:#ECF0F5}
    .fil2 {fill:white}
   ]]>
  </style>
 </defs>
 <g id="Layer_x0020_1">
  <metadata id="CorelCorpID_0Corel-Layer"/>
  <circle class="fil0" cx="231" cy="231" r="231"/>
  <g id="_827753812336">
   <g>
    <path class="fil1" d="M186 133c0,-1 0,-1 0,-2l0 -8 -23 0c-8,1 -15,8 -18,14 -2,6 -1,23 -1,30 0,43 -1,85 0,127 0,11 0,21 0,32 0,19 -1,36 27,36l127 0c9,0 21,1 29,-3 8,-5 11,-12 11,-21 0,-10 0,-21 0,-32 -2,1 -13,13 -14,14 -4,4 2,21 -4,25 -3,3 -21,2 -27,2l-113 0c-12,0 -20,2 -21,-8 -1,-18 0,-38 0,-57 0,-18 0,-38 0,-57 0,-8 -1,-80 1,-84 3,-5 19,-2 26,-3l0 -5z"/>
    <path class="fil1" d="M206 116c-14,0 -13,1 -13,15 0,6 -1,12 5,13l78 0c13,0 13,0 13,-16 0,-12 -2,-12 -13,-12 -6,0 -4,1 -10,-9 -5,-8 -3,-7 -15,-7l-28 0c-6,0 -8,6 -12,13 -2,3 -1,3 -5,3z"/>
    <path class="fil1" d="M308 325c2,-1 14,-14 17,-17 5,-5 49,-48 51,-51l-18 -19c-3,2 -7,6 -9,9 -7,7 -59,57 -59,59l18 19z"/>
    <path class="fil1" d="M296 138c6,0 13,0 19,0 7,0 8,4 8,11 0,12 0,25 0,37 0,25 -1,51 0,75 3,-2 8,-7 11,-10 6,-6 4,-4 4,-18l0 -86c0,-12 -8,-23 -19,-24l-23 0 0 15z"/>
    <path class="fil1" d="M236 272c1,6 11,4 17,4 7,0 14,0 21,0 7,0 14,0 21,0 3,0 15,2 13,-6 -1,-6 -11,-4 -17,-4l-41 0c-6,0 -15,-2 -14,6z"/>
    <path class="fil1" d="M240 225c-6,2 -5,10 3,10 9,0 59,1 62,0 5,-2 6,-10 -3,-10l-62 0z"/>
    <path class="fil1" d="M239 184c-5,2 -5,10 4,10l62 0c5,-2 6,-11 -4,-11 -10,1 -59,0 -62,1z"/>
    <path class="fil1" d="M189 195c-4,-2 -7,-10 -12,-10 -3,0 -5,4 -3,7 0,1 4,4 5,6 2,2 3,3 5,5 6,7 10,-1 19,-10 3,-3 7,-7 11,-10 1,-2 4,-4 4,-7 0,-4 -4,-6 -7,-4 0,1 -4,5 -5,6l-17 17z"/>
    <path class="fil1" d="M189 277c-3,-1 -8,-10 -12,-10 -3,1 -5,4 -4,7l11 11c6,7 8,1 19,-9 4,-4 7,-8 11,-12 1,-1 5,-3 4,-7 0,-3 -4,-4 -7,-2 -2,1 -9,9 -11,11 -3,4 -7,8 -11,11z"/>
    <path class="fil1" d="M189 236c-4,-2 -7,-10 -12,-10 -3,0 -5,4 -4,7 1,1 5,5 6,6 2,2 3,3 5,5 6,7 9,1 19,-9 4,-4 15,-15 15,-18 0,-4 -3,-5 -6,-4l-23 23z"/>
    <path class="fil1" d="M207 316c3,-7 -2,-14 -8,-16 -7,-2 -14,3 -15,9 -5,16 19,22 23,7z"/>
    <path class="fil1" d="M280 307c-7,-1 -17,0 -24,0 -9,0 -19,-2 -20,4 -2,9 11,7 17,7 8,-1 17,0 24,-1l3 -10z"/>
    <path class="fil1" d="M282 333c2,0 22,-5 24,-6l-18 -19c-2,3 -7,22 -6,25z"/>
    <path class="fil1" d="M362 234l18 19c10,-8 6,-9 -2,-17 -7,-6 -9,-12 -16,-2z"/>
    <path class="fil1" d="M237 302l5 0c0,-2 1,-6 -1,-6l-4 1 0 4 0 1z"/>
    <path class="fil1" d="M296 138l0 -15 23 0c-3,-1 -22,0 -23,0 -1,2 -1,5 -1,8l1 6c0,1 0,1 0,1z"/>
    <path class="fil1" d="M186 133l0 -10c-2,0 -21,-1 -23,0l23 0 0 8c0,1 0,1 0,2z"/>
   </g>
   <path class="fil2" d="M349 247c-7,7 -59,57 -59,59l18 19c2,-1 14,-14 17,-17 5,-5 49,-48 51,-51l-18 -19c-3,2 -7,6 -9,9zm-111 -103l38 0c13,0 13,0 13,-16 0,-12 -2,-12 -13,-12 -6,0 -4,1 -10,-9 -5,-8 -3,-7 -15,-7l-13 0 0 44zm140 92c-7,-6 -9,-12 -16,-2l18 19c10,-8 6,-9 -2,-17zm-55 -50c0,25 -1,51 0,75 3,-2 8,-7 11,-10 6,-6 4,-4 4,-18l0 -86c0,-12 -8,-23 -19,-24l-23 0 0 15c6,0 13,0 19,0 7,0 8,4 8,11 0,12 0,25 0,37zm-80 8l62 0c5,-2 6,-11 -4,-11 -10,1 -59,0 -62,1 0,0 -1,0 -1,1l0 8c1,1 3,1 5,1zm0 41c9,0 59,1 62,0 5,-2 6,-10 -3,-10l-62 0c-1,0 -1,0 -2,1l0 8c1,1 3,1 5,1zm10 41c7,0 14,0 21,0 7,0 14,0 21,0 3,0 15,2 13,-6 -1,-6 -11,-4 -17,-4l-41 0c-4,0 -9,-1 -12,1l0 8c4,2 11,1 15,1zm24 41l3 -10c-7,-1 -17,0 -24,0 -7,0 -14,-1 -18,1l0 8c4,3 11,2 15,2 8,-1 17,0 24,-1zm29 10l-18 -19c-2,3 -7,22 -6,25 2,0 22,-5 24,-6zm32 -21c-2,1 -13,13 -14,14 -4,4 2,21 -4,25 -3,3 -21,2 -27,2l-55 0 0 15 60 0c9,0 21,1 29,-3 8,-5 11,-12 11,-21 0,-10 0,-21 0,-32z"/>
  </g>
 </g>
</svg>
