<?xml version="1.0" encoding="UTF-8"?>
<!DOCTYPE svg PUBLIC "-//W3C//DTD SVG 1.1//EN" "http://www.w3.org/Graphics/SVG/1.1/DTD/svg11.dtd">
<!-- Creator: CorelDRAW X8 -->
<svg xmlns="http://www.w3.org/2000/svg" xml:space="preserve" width="1.041in" height="1.041in" version="1.1" style="shape-rendering:geometricPrecision; text-rendering:geometricPrecision; image-rendering:optimizeQuality; fill-rule:evenodd; clip-rule:evenodd"
viewBox="0 0 109 109"
 xmlns:xlink="http://www.w3.org/1999/xlink">
 <defs>
  <style type="text/css">
   <![CDATA[
    .fil3 {fill:#9AAB3B}
    .fil1 {fill:#ECF0F5}
    .fil0 {fill:#C1D64B;fill-rule:nonzero}
    .fil2 {fill:#ECF0F5;fill-opacity:0.501961}
   ]]>
  </style>
 </defs>
 <g id="Layer_x0020_1">
  <metadata id="CorelCorpID_0Corel-Layer"/>
  <path class="fil0" d="M54 0c16,0 29,6 39,16 10,10 16,23 16,38 0,16 -6,29 -16,39 -10,10 -23,16 -39,16 -15,0 -28,-6 -38,-16 -10,-10 -16,-23 -16,-39 0,-15 6,-28 16,-38 10,-10 23,-16 38,-16z"/>
  <path class="fil1" d="M40 36c0,1 -1,1 -2,0 0,0 0,-1 0,-2 2,-1 3,-2 5,-3 1,0 3,-1 5,-1 1,0 3,1 5,1l0 0c1,1 3,2 4,3 0,1 1,1 0,2 -1,1 -2,1 -2,0 -1,-1 -2,-2 -3,-2l0 0c-2,-1 -3,-1 -4,-1 -2,0 -3,0 -4,1 -1,1 -3,1 -4,2zm22 32l17 18c3,2 10,-3 6,-7l-17 -17c0,0 5,-7 5,-15 0,-8 -4,-15 -10,-19 -4,-4 -9,-6 -15,-6 0,0 0,0 0,0 -14,0 -25,11 -25,25 0,14 11,25 25,25 6,0 11,-3 14,-4zm-14 -4c-10,0 -17,-8 -17,-17 0,-10 7,-18 17,-18 10,0 17,8 17,18 0,9 -7,17 -17,17z"/>
  <path class="fil2" d="M62 66l0 1c2,-2 4,-3 6,-5l-1 -1c-1,2 -3,4 -5,5z"/>
  <path class="fil3" d="M48 64c10,0 17,-8 17,-17 0,-10 -7,-18 -17,-18 -10,0 -17,8 -17,18 0,9 7,17 17,17zm4 -30l0 0zm-12 2c0,1 -1,1 -2,0 0,0 0,-1 0,-2 2,-1 3,-2 5,-3 1,0 3,-1 5,-1 1,0 3,1 5,1l0 0c1,1 3,2 4,3 0,1 1,1 0,2 -1,1 -2,1 -2,0 -1,-1 -2,-2 -3,-2 -2,-1 -3,-1 -4,-1 -2,0 -3,0 -4,1 -1,1 -3,1 -4,2z"/>
  <path class="fil3" d="M32 66l43 39c7,-3 13,-7 18,-12 7,-7 12,-15 14,-25l-39 -36c3,4 5,9 5,15 0,5 -2,11 -5,15l17 17c4,4 -3,9 -6,7l-17 -18c-4,2 -9,4 -14,4 -6,0 -11,-3 -16,-6z"/>
 </g>
</svg>
