<?xml version="1.0" encoding="UTF-8"?>
<!DOCTYPE svg PUBLIC "-//W3C//DTD SVG 1.1//EN" "http://www.w3.org/Graphics/SVG/1.1/DTD/svg11.dtd">
<!-- Creator: CorelDRAW X8 -->
<svg xmlns="http://www.w3.org/2000/svg" xml:space="preserve" width="1.0119in" height="1.0119in" version="1.1" style="shape-rendering:geometricPrecision; text-rendering:geometricPrecision; image-rendering:optimizeQuality; fill-rule:evenodd; clip-rule:evenodd"
viewBox="0 0 310 310"
 xmlns:xlink="http://www.w3.org/1999/xlink">
 <defs>
  <style type="text/css">
   <![CDATA[
    .fil1 {fill:#BD6D29}
    .fil2 {fill:#E0E0D1}
    .fil0 {fill:#EBB88B}
    .fil3 {fill:white;fill-rule:nonzero}
   ]]>
  </style>
 </defs>
 <g id="Layer_x0020_1">
  <metadata id="CorelCorpID_0Corel-Layer"/>
  <g id="_144831421248">
   <g>
    <path class="fil0" d="M0 155c0,43 17,82 45,110 28,28 67,45 110,45 43,0 82,-17 110,-45 28,-28 45,-67 45,-110 0,-43 -17,-82 -45,-110 -28,-28 -67,-45 -110,-45 -43,0 -82,17 -110,45 -28,28 -45,67 -45,110z"/>
    <path class="fil1" d="M127 177c-4,23 -16,46 -27,67l0 0 50 66c1,0 3,0 5,0 6,0 12,0 18,-1 35,-4 68,-20 92,-44 23,-23 39,-54 44,-88l-107 -96c-2,-1 -3,-2 -5,-3 -1,0 -2,0 -2,0l-12 17c6,7 10,17 10,27 0,21 -17,38 -38,38 -5,0 -10,-1 -15,-3l-11 17 -1 2c0,-1 -1,-2 -1,-3 -1,-3 -1,-6 1,-9l1 -1 -3 -1 0 0c0,1 -1,1 -1,2 -1,0 -2,1 -2,1 -3,2 -6,2 -9,2 -2,-1 -3,-2 -5,-3l18 16c0,-1 0,-2 0,-3z"/>
    <path class="fil2" d="M155 64c-2,-2 -5,-4 -8,-4 -1,0 -1,0 -2,0 0,0 -1,1 -1,1l-1 0c-3,0 -5,2 -7,4 -2,2 -3,5 -3,8 0,1 0,1 0,2 0,1 1,1 1,2l0 1 -2 1 -1 -1c-2,-3 -4,-5 -7,-5 -3,-1 -6,0 -9,1 -3,2 -4,5 -5,8 -1,2 0,6 1,8 1,1 1,2 2,2 0,1 1,1 1,2l1 0 -1 2 -2 0c-3,-2 -6,-2 -9,-1 -2,1 -5,3 -6,5 -2,3 -2,6 -1,9 1,3 3,6 5,7 1,0 2,1 2,1 1,0 2,0 3,0l0 1 0 2c0,0 -1,0 -1,0 -3,0 -6,2 -8,4 -2,2 -4,5 -3,8l0 0c0,3 1,6 3,8 2,2 5,4 9,4 0,-1 1,-1 2,-1 0,0 1,0 2,0l1 -1 1 3 -1 0c-3,2 -5,5 -6,8 0,3 0,6 2,8 1,3 4,5 7,6 3,0 6,0 9,-2 0,0 1,-1 2,-1 0,-1 1,-1 1,-2l0 0 3 1 -1 1c-2,3 -2,6 -1,9 1,3 3,6 6,7 2,2 6,2 9,1 2,-1 5,-3 6,-6 1,0 1,-1 1,-2 1,0 1,-1 1,-2l0 0 3 0 0 1c0,3 1,6 3,8 2,2 5,4 9,4 3,-1 6,-2 8,-4 2,-2 3,-5 3,-8 0,-1 0,-2 0,-3 -1,0 -1,-1 -1,-2l0 0 2 -2 1 2c1,2 4,4 7,5 3,1 6,0 9,-1 3,-2 4,-5 5,-8 1,-2 0,-6 -1,-8 -1,-1 -1,-2 -2,-2 0,-1 -1,-1 -1,-2l-1 0 2 -2 1 0c3,2 6,2 9,1 3,0 5,-2 7,-5 1,-3 2,-6 1,-9 -1,-3 -3,-5 -6,-7 0,0 -1,-1 -2,-1 0,0 -1,0 -2,0l-1 0 1 -3 1 0c3,0 6,-1 8,-4 2,-2 4,-5 4,-8 0,-3 -2,-6 -4,-8 -2,-2 -5,-3 -8,-3 -1,0 -2,0 -2,0 -1,0 -2,0 -3,0l0 1 -1 -3 1 0c3,-2 5,-5 5,-7 1,-3 1,-7 -1,-9 -2,-3 -4,-5 -7,-6 -3,0 -6,0 -9,2 -1,0 -1,0 -2,1 0,0 -1,1 -1,1l-1 1 -2 -2 1 -1c1,-3 2,-6 1,-9 -1,-2 -3,-5 -5,-7 -3,-1 -6,-2 -9,-1 -3,1 -6,3 -7,6 -1,0 -1,1 -1,2 -1,0 -1,1 -1,2l0 1 -3 -1 0 -1c0,-3 -1,-6 -3,-8zm-8 142c3,-16 2,-22 2,-28l0 0c-5,7 -17,7 -22,-1 -1,8 -4,18 -9,30 -9,21 -18,37 -18,37l25 -15 8 21c0,0 12,-28 14,-44zm19 -21c0,5 1,10 2,16 3,20 13,44 13,44l9 -21 24 15c0,0 -8,-15 -17,-37 -5,-11 -8,-21 -9,-28 -1,0 -2,0 -3,0 -3,-1 -6,-3 -8,-6l0 1c0,1 0,2 0,3 1,3 -1,7 -3,9 -2,2 -5,4 -8,4zm-11 -101c21,0 38,17 38,38 0,21 -17,38 -38,38 -21,0 -38,-17 -38,-38 0,-21 17,-38 38,-38z"/>
   </g>
   <path class="fil3" d="M175 132c0,3 0,6 -2,8 -1,2 -4,4 -7,6 -3,1 -6,2 -10,2 -5,0 -9,-1 -12,-3 -2,-2 -4,-3 -6,-6 -1,-2 -2,-4 -2,-6 0,-1 1,-2 2,-3 0,-1 1,-1 3,-1 1,0 2,0 2,1 1,0 2,1 2,3 1,1 2,3 2,4 1,1 2,2 3,2 2,1 3,1 6,1 3,0 5,0 7,-2 2,-1 3,-3 3,-5 0,-2 -1,-3 -2,-4 -1,-1 -2,-2 -4,-2 -1,-1 -4,-1 -6,-2 -4,-1 -7,-2 -9,-3 -2,-1 -4,-3 -6,-4 -1,-2 -2,-5 -2,-8 0,-2 1,-5 2,-7 2,-2 4,-4 7,-5 3,-1 6,-1 10,-1 3,0 5,0 8,1 2,1 4,2 5,3 1,1 3,2 3,4 1,1 1,2 1,4 0,1 0,2 -1,3 -1,1 -2,1 -3,1 -1,0 -2,0 -3,-1 0,0 -1,-1 -2,-2 -1,-2 -2,-4 -3,-5 -1,-1 -3,-1 -6,-1 -3,0 -5,0 -6,1 -2,2 -3,3 -3,4 0,1 1,2 1,3 1,1 2,1 2,2 1,0 2,1 3,1 1,0 3,1 5,1 3,1 5,2 8,3 2,0 4,1 5,2 2,1 3,3 4,5 1,1 1,3 1,6z"/>
   <path class="fil1" d="M142 143l18 17c19,-3 33,-18 33,-37l-23 -22c1,1 2,3 2,4 1,1 1,2 1,4 0,1 0,2 -1,3 -1,1 -2,1 -3,1 -1,0 -2,0 -3,-1 0,0 -1,-1 -2,-2 -1,-2 -2,-4 -3,-5 -1,-1 -3,-1 -6,-1 -3,0 -5,0 -6,1 -2,2 -3,3 -3,4 0,1 1,2 1,3 1,1 2,1 2,2 1,0 2,1 3,1 1,0 3,1 5,1 3,1 5,2 8,3 2,0 4,1 5,2 2,1 3,3 4,5 1,1 1,3 1,6 0,3 0,6 -2,8 -1,2 -4,4 -7,6 -3,1 -6,2 -10,2 -5,0 -9,-1 -12,-3 -1,-1 -2,-1 -2,-2z"/>
   <path class="fil1" d="M141 120l21 19c0,-1 1,-1 1,-1 2,-1 3,-3 3,-5 0,-2 -1,-3 -2,-4 -1,-1 -2,-2 -4,-2 -1,-1 -4,-1 -6,-2 -4,-1 -7,-2 -9,-3 -1,-1 -2,-1 -4,-2z"/>
  </g>
 </g>
</svg>
