<?xml version="1.0" encoding="UTF-8"?>
<!DOCTYPE svg PUBLIC "-//W3C//DTD SVG 1.1//EN" "http://www.w3.org/Graphics/SVG/1.1/DTD/svg11.dtd">
<!-- Creator: CorelDRAW X8 -->
<svg xmlns="http://www.w3.org/2000/svg" xml:space="preserve" width="1.0119in" height="1.0119in" version="1.1" style="shape-rendering:geometricPrecision; text-rendering:geometricPrecision; image-rendering:optimizeQuality; fill-rule:evenodd; clip-rule:evenodd"
viewBox="0 0 103 103"
 xmlns:xlink="http://www.w3.org/1999/xlink">
 <defs>
  <style type="text/css">
   <![CDATA[
    .fil4 {fill:#008C61}
    .fil3 {fill:#04AF76}
    .fil0 {fill:#D3411C}
    .fil1 {fill:#DD981D}
    .fil6 {fill:#E0E0D1}
    .fil2 {fill:#F2B233}
    .fil5 {fill:white}
   ]]>
  </style>
 </defs>
 <g id="Layer_x0020_1">
  <metadata id="CorelCorpID_0Corel-Layer"/>
  <path class="fil0" d="M15 88c9,10 22,15 37,15 14,0 27,-5 36,-15 10,-9 15,-22 15,-36 0,-15 -5,-28 -15,-37 -9,-9 -22,-15 -36,-15 -15,0 -28,6 -37,15 -9,9 -15,22 -15,37 0,14 6,27 15,36z"/>
  <g id="_41697515872">
   <path class="fil1" d="M45 19c-11,1 -7,11 -2,18 1,1 1,3 1,3 -1,1 -12,5 -18,21 -6,15 -1,22 13,23 10,0 12,0 13,0 0,0 2,0 13,0 13,-1 18,-8 12,-23 -6,-16 -16,-20 -18,-21 0,0 0,-2 1,-3 5,-7 9,-17 -2,-18l-13 0z"/>
   <path class="fil2" d="M26 61c-6,15 -1,22 13,23 10,0 12,0 13,0 0,0 0,0 0,0l0 -65 -7 0c-11,1 -7,11 -2,18 1,1 1,3 1,3 -1,1 -12,5 -18,21z"/>
   <rect class="fil3" x="40" y="37" width="24.3976" height="4.66586" rx="2" ry="2"/>
   <path class="fil4" d="M42 37c0,0 -1,0 -1,0l2 1 9 1 10 2 0 0c1,0 2,-1 2,-2 0,-1 -1,-2 -2,-2l-10 0 -9 0 -1 0z"/>
   <circle class="fil3" cx="52" cy="64" r="13"/>
   <path class="fil4" d="M52 64l9 8c2,-2 4,-5 4,-8 0,-7 -6,-13 -13,-13 -4,0 -7,1 -9,4l9 9z"/>
   <g>
    <path class="fil5" d="M55 56c0,0 -1,-1 -2,-1l0 -2 -2 0 0 2 0 0c-3,1 -4,2 -4,5 0,2 2,3 4,5 2,0 3,1 3,2 0,1 -1,2 -2,2 -2,0 -3,0 -4,-1l0 3c0,0 2,1 3,1l0 2 2 0 0 -2 0 0c3,-1 4,-3 4,-5 0,-2 -1,-4 -4,-5 -2,-1 -3,-1 -3,-2 0,-1 0,-2 2,-2 1,0 2,0 3,0l0 -2zm-3 -1c0,0 0,0 0,0 0,0 0,0 0,0zm0 0c0,0 0,0 0,0l0 0zm0 17c0,0 0,0 0,0 0,0 0,0 0,0z"/>
   </g>
   <path class="fil6" d="M54 67c0,1 -1,2 -2,2l0 5 1 0 0 -2c2,-1 4,-2 4,-3 0,-1 0,-2 0,-2 0,-2 -1,-4 -4,-5 0,0 -1,0 -1,0l0 2 0 1c1,1 2,1 2,2zm-2 -12l0 3c0,0 0,0 0,0 1,0 2,0 3,0l0 -2c0,0 -1,-1 -2,-1l0 -2 -1 0 0 2z"/>
  </g>
 </g>
</svg>
