SNO,REG. NO.,1ST NAME,MIDDLE NAME,SURNAME,DATE OF BIRTH,SEX,REGISTRATION DATE,NATIONALITY,FORM IV INDEX NO.,FORM IV YEAR,FORM VI INDEX NO.,FORM VI YEAR,NAME OF PARENT/GUADIAN,ADDRESS,SPONSORSHIP,NAME AND ADDRESS OF LAST SCHOOL
1,OD/2011/WS 22,CHARLES ,J. ,CLEMENT,08.04.1989,M,15/08/2011,TANZANIAN,S0476-0049,2008,,,JULIUS M. CLEMENT,BOX 17 MPANDA,PRIVATE,MWANGAZA S.S
2,OD/2011/WS 42,FRANKSON  ,EDSON,KYANDO,21.03.1992,M,15/08/2011,TANZANIAN,S1204-0127,2010,,,EDSON NASSORO KYANDO,BOX 1421 DODOMA,GOVERNMENT,UYOLE S.S 1920 MBEYA
3,OD/2011/WS107,SHEIN ,,FAUSTINE,12.02.1990,M,15/08/2011,TANZANIAN,S0333- 0299,2010,,,ELIZABETH SULUSI,BOX 8033 MWANZA,GOVERNMENT,MWANZA S.S 149 MWANZA
4,OD/2011/WS 112,SUMAIYA ,B. ,MOHAMMED,27.06.1992,F,15/08/2011,TANZANIAN,S1665-0061,2010,,,BURUHANI MOHAMMED,BOX 11404 MWANZA,PRIVATE,NYASAKA ISLAMIC S.S 
5,OD/2011/WS 104,SHABANI ,A. ,SHABANI,13.03.1993,M,15/08/2011,TANZANIAN,S2767-0135,2010,,,ATHUMANI SHABANI,BOX 9192 DSM,PRIVATE,GEREZANI S.S, 21134 DSM
6,OD/2011/WS 54,IDD ,JACKSON ,HAMISI,01.01.1990,M,15/08/2011,TANZANIAN,S2519-0075,2010,,,JACKSON HAMISI,BOX 188 MBEYA,GOVERNMENT,SWAYA S.S 2091 MBEYA
7,OD/2011/WS 87,OBEDI ,,SIMON,04.03.1988,M,15/08/2011,TANZANIAN,S0784- 0385, P0301- 0266,2006, 2008,,,FADHIL ELIA,BOX 5240 DSM,PRIVATE,AIRWING S.S 1811 DSM -AIRWING J.W.T.Z
8,OD/2011/WS 64,JOSEPH ,JESTUS ,MAZULA,22.09.1992,M,15/08/2011,TANZANIAN,S0358-0058,2010,,,JESTUS MAZULA,BOX 5993 DSM,PRIVATE,SHIGHATINI S.S 12 SHIGHATINI UGWENO
9,OD/2011/WS108,SIMON ,LUNOGELO ,FUTE,25.09.1986,M,15/08/2011,TANZANIAN,S0561-0113,2010,,,LINE FUTE,BOX 46 MBARALI,GOVERNMENT,MONFORT S.S BOX 82 MBARALI
10,OD/2011/WS117,WILLIAM ,K. ,JASPER,03.07.1987,M,15/08/2011,TANZANIAN,S0886-0128,2008,,,WOLTER JASPER KAJIRU,BOX,PRIVATE,SEMKIWA S.S 49 KOROGWE
11,OD/2011/WS 90,OSCAR ,I. ,NGOWI,13.09.1991,M,15/08/2011,TANZANIAN,S1004- 0121,2010,,,EDWIN I. NGOWI,BOX 62705 DSM,PRIVATE,MNINI S.S MOSHI 8467 MOSHI
12,OD /2011/WS 81,MOHAMED  ,MWALEMBA,ONESMO,12.01.1991,M,15/08/2011,TANZANIAN,S2863- 0101,2010,,,MARIAM ABDALLAH,BOX ,GOVERNMENT,TUBUYU S.S 6065 MOROGORO
13,OD/2011/WS 44,GERALD  ,OSWARD,KAPUKUTU,12.09.1989,M,15/08/2011,TANZANIAN,S0966-0094,2010,,,OSWARD GASPER KAPUKUTU,BOX 214 MUHEZA TANGA,GOVERNMENT,MLINGANO S.S 281 MUHEZA
14,OD/2011/WS 11,ATHUMANI ,S. ,CHORA,01.03.1992,M,15/08/2011,TANZANIAN,S2656-0022,2010,,,SAID SALUM CHORA,BOX 110 DSM,GOVERNMENT,FPCT-RUO S.S 1010 LINDI
15,OD/2011/WS/115,TOBIAS ,,JOSEPH,25.11.1979,M,15/08/2011,TANZANIAN,S0573-2541,1996,,,JOSEPH NJAU,BOX 11045 ARUSHA,PRIVATE,NRONGA S.S MOSHI
16,OD/2011/WS 28,DANIEL ,CHRISTIAN ,NJILE,06.07.1990,M,15/08/2011,TANZANIAN,S3342-0039,2010,,,HOLO SEMBO,,PRIVATE,MASUMBA S.S
17,OD/2011/WS 12,AUSI ,A. ,ANTONY,1991,M,15/08/2011,TANZANIAN,S0672-0209,2010,,,MARIA MAJULI,BOX 5847 TANGA,GOVERNMENT,MKWAKWANI S.S 5847 TANGA
18,OD/2011/WS 03,ABDULAZIZ ,,HEMED ,19.11.1992,M,15/08/2011,TANZANIAN,S0345-0134,2010,,,SHEHE HEMED MGANGAWE,BOX 330 TANGA,GOVERNMENT,USAGARA S.S 330 TANGA
19,OD/2011/WS 46,GOFA ,,MOHAMED,25.05.1990,M,15/08/2011,TANZANIAN,S0345-0183,2010,,,PAULINA H. MGULUWASASA,BOX 997 TANGA,PRIVATE,USAGARA S.S 330 TANGA
20,OD/2011/WS 57,INNOCENT ,E. ,MWANGA,29.12.1989,M,15/08/2011,TANZANIAN,S0108-0121,2007,,,AMOSI E.J. MWANGA,BOX 533 KOROGWE TANGA,PRIVATE,IFUNDA TECH. S.S 11 IFUNDA
21,OD/2011/WS 111,STEPHANO ,EDWINI ,MALILA,21.07.1991,M,15/08/2011,TANZANIAN,S1204-0181,2010,,,EDWINI MALILA,BOX 1920 MBEYA,GOVERNMENT,UYOLE S.S 1920 MBEYA
22,OD/2011/WS 31,EDGER ,,MAGAVA,24.01.1989,M,15/08/2011,TANZANIAN,S0139-0038,2010,,,Rev. LUCAS MBEDULE,469 MTWARA,GOVERNMENT,MTWARA TECHNICAL S.S
23,OD/2011/WS 100,SAID ,,MWANGALO,23.11.1992,M,15/08/2011,TANZANIAN,S0139-0114,2010,,,SAID CHITALE,BOX 4532 DSM,GOVERNMENT,MTWARA TECH. S.S 104 MTWARA
24,OD/2011/WS 29,DAUDI ,M. ,MSHANA,05.01.1990,M,16.08.2011,TANZANIAN,S0888-0075,2010,,,HIJA ABDALLA,BOX,PRIVATE,LANG'ATABORA S.S 208 MWANGA
25,OD/2011/WS 37,ERICK ,BASHEMELA ,AUDAX,24.09.1991,M,16.08.2011,TANZANIAN,S0482-0034,2010,,,AUDAX TIBETATULWA,BOX 95137 DSM,P. A,ILUHYA S.S 308 BUKOBA
26,OD/2011/WS 66,JOSEPHAT  ,HILONIMUS,CHATANDA,15.05.1990,M,16.08.2011,TANZANIAN,S0655-0068,2010,,,ASTERIA WERA,BOX 569 IHANGA,GOVERNMENT,KIFANYA S.S 414 NJOMBE
27,OD/2011/WS 38,FARID  ,MUSSA,SAID,01.01.1994,M,16.08.2011,TANZANIAN,TZ023-0033,2010,,,MWANAHAMIS MUSSA,BOX 22461 DSM,PRIVATE,AL.MUNTAZIR ISLAMIC SEMINARY
28,OD/2011/WS 110,SIXBETH ,EDWIN ,MSITA,30.06.1989,M,16.08.2011,TANZANIAN,S0103-0087,2010,,,EDWIN MSITA,BOX 222 IFAKARA,GOVERNMENT,BIHAWANA S.S 934 DODOMA
29,OD/2011/WS 15,BARAKA,,MALECHELA,02.01.1987,M,16.08.2011,TANZANIAN,S1362-0027,2008,S0413-0506,2011,GRACE J. LUSINDE,BOX ,PRIVATE,KONGOWE POLYTECH S.S
30,OD/2011/WS 119,ABDILLAH ,,RAMADHANI,11.06.1988,M,16.08.2011,TANZANIAN,S0672-0170, P0156-0166,2009, 2010,,,RAMADHANI IDD,BOX 2461 TANGA,PRIVATE,MKWAKWANI S.S 5847 TANGA, TANGA TECH CENTRE
31,OD/2011/WS 84,MUSSA ,B. ,KISOBWE,08.10.1991,M,16.08.2011,TANZANIAN,S0645-0177,2009,,,BILALI Y. KISOBWE,BOX 10 MKURANGA,PRIVATE,VITUKA S.S 19823 DSM- SHIGHATINI
32,OD/2011/WS 19,BRIAN ,,MZOKE,16.10.1985,M,17.08.2011,TANZANIAN,P0991-0217, P1213-0132, P1213-0127,2003, 2007, 2010,,,FESTUS MZOKE,BOX 25411 DSM,P. A,ARDHI INST. S.S CENTRE
33,OD/2011/WS101,SALIM ,,MKWANYWE,20.10.1989,M,17.08.2011,TANZANIAN,S0960-0463,2008,,,KHALID K. MKWANYWE,BOX 77543 DSM,PRIVATE,BENJAMIN MKAPA S.S 15209 DSM
34,OD/2011/WS 60,JELLYSON  ,JAMES,KAZUNGU,14.02.1991,M,17.08.2011,TANZANIAN,S0791-0145,2010,,,JAMES KAZUNGU,BOX 63215 DSM,P. A,KIGAMBONI S.S 36027 DSM
35,OD/2011/WS 04,AHMEDI,A. ,GUNEWE,13.07.1990,M,17.08.2011,TANZANIAN,S0790-0020,2010,,,AWADH M. GUNEWE,BOX 30051 KIBAHA,P. A,PWANI S.S 30124 KIBAHA
36,OD/2011/WS 63,JOSEPH  ,,PETER,28.09.1992,M,17.08.2011,TANZANIAN,S0151-0068,2010,,,ANASTAZIA M. BUSANJI,BOX 123 BUNDA,GOVERNMENT,SENGEREMA S.S 42 MWANZA
37,OD/2011/HG 20,NATHANAEL  ,,NDUNGURU,20.03.1992,M,17.08.2011,TANZANIAN,S0101-0436, P0377-0736,2009, 2010,,,BORAKUPATA NDUNGURU,BOX 13885 DSM,PRIVATE,LUGALO J.W.T.Z CENTRE
38,OD/2011/WL 10,ERASTO ,,MICHAEL,26.06.1985,M,17.08.2011,TANZANIAN,S0731-0282,2006,,,MICHAEL NGEYE,BOX ,PRIVATE,MAKONGO S.S 
39,OD/2011/WS 75,MARTIN ,G.,MICHAEL,21.05.1973,M,17.08.2011,TANZANIAN,S0340- 151,1992,S0156-0546,1995,MATHEW MNKANDE,BOX 5376 TANGA,PRIVATE,TANGA S.S 5002 TANGA- POPATLAL SEC
40,OD/2011/WS 93,PROCHES ,D.,TARIMO,10.11.1988,M,18.08.2011,TANZANIAN,S1041- 0133,2010,,,DONATH TARIMO,BOX 51 MKUU ROMBO,PRIVATE,LONGOI S.S 1009 MOSHI
41,OD/2011/WS 85,MUSTAFA,P. ,KITEPA,11.06.1988,M,18.08.2011,TANZANIAN,S1455-0080,2010,,,PAUL KITEPA,BOXN 542 SINGIDA,PRIVATE,MAURICE S.S 104705 DSM
42,OD/2011/WS 59,JAPHET ,JOEL ,LUKUPE,27.09.1991,M,18.08.2011,TANZANIAN,S1207-0108,2010,,,JOEL LUKUPE,BOX 3573 DODOMA,PRIVATE,MAKUTUPORA S.S 3573 DODOMA
43,OD/2011/WS 49,GWAIPYANA  ,MWAKAMASE,MPOSSI,05.05.1991,M,18.08.2011,TANZANIAN,S2044-0097,2010,,,ANDONDILE M. MPOSSI,BOX 53 MBEYA,GOVERNMENT,IDUDA S.S 33 MBEYA
44,OD/2011/WS 99,ROBINA ,,ROBERT,15.01.1990,F,18.08.2011,TANZANIAN,S0534- 0051,2007,S1011-0529,2010,ROBERT F. KATUNDU,BOX 100012 DSM,PRIVATE,ST. ANTHONY S.S MBAGALA 7490 DSM
45,OD/2011/WS 118,YOHANNES,J.,BULAMU,17.12.1990,M,18.08.2011,TANZANIAN,S0496-0518,2009,,,JUVENILE BULAMU,BOX 4331 DSM,PRIVATE,JITEGEMEE S.S BOX 45050 DSM
46,OD/2011/WS 73,LEMALALI,M. ,LEMTUNDE,01.02.1990,M,18.08.2011,TANZANIAN,S1120 - 0057 ,2009,,,MELEMBUKI LEMTUNDE,BOX 7037 ARUSHA,PRIVATE,MOITA S.S BOX 
47,OD/2011/WS 88,OMARY,A. ,MALINDA,16.08.1992,M,18.08.2011,TANZANIAN,S0954- 0094,2010,,,DUNIA O. MILONDOMO,BOX 02 RUFIJI IKWIRIRI,PRIVATE,MKONGO S.S 51 KIBITI RUFIJI
48,OD/2011/WS 92,PETRO,C.,MSIGWA,08.10.1986,M,18.08.2011,TANZANIAN,S2831- 0026,2010,,,NORBART MSIGWA,BOX 260 IRINGA,GOVERNMENT,MARIA CONSOLATA S.S 1167 IRINGA
49,OD/2011/WS 91,PASCHAL ,PAUL ,GUYENHA,14.04.1990,M,18.08.2011,TANZANIAN,S1333- 0067,2010,,,NYAGUDI GUYENHA,BOX 185 KAHAMA,GOVERNMENT,KAHAMA MUSLIM S.S 
50,OD/2011/WS105,SHAKIRI,M. ,RAJABU,14.11.1990,M,19.08.2011,TANZANIAN,S2431-0097,2010,,,HALIMA AMIRI,BOX 7776 MOSHI,PRIVATE,MABOGINI S.S 7776 MOSHI
51,OD/2011/WS 18,BLUSTER ,ANTONY ,KAYEGA,05.04.1988,M,19.08.2011,TANZANIAN,S1207-0076,2010,,,ANTONY KAYEGA,BOX 3573 DODOMA,PRIVATE,MAKUTUPORA S.S 3573 DODOMA
52,OD/2011/WS 43,FREDRICK ,,KIBUMO,02.02.1992,M,19.08.2011,TANZANIAN,S0325-0168,2009,,,CLEMENTINA MNG'ONG'O,BOX 35869 DSM,P. A,LUGALO S.S 145 IRINGA
53,OD/2011/WS 34,ELISHA ,,PETER,08.09.1991,M,19.08.2011,TANZANIAN,S0136-0021,2010,,,PETER SEMBA,BOX 42 GEITA MWANZA,GOVERNMENT,MUSOMA TECH. S.S 54 MUSOMA
54,OD/2011/WS,NELSON ,,PETER,06.06.1985,M,19.08.2011,TANZANIAN,S1099-0061, P0323-0050,2005,  2007,P0333-0844,2010,AMOS BUSH,BOX 5007 DSM,PRIVATE,NYEHUNGE S.S- LAKE SEC- MWANZA SEC 
55,OD/2011/WS 67,JUMANNE ,,BWIRE,17.07.1992,M,19.08.2011,TANZANIAN,S0352-0044,2010,,,BWIRE MAGUNGU,BOX 2318 DSM,GOVERNMENT,TARIME S.S 183 TARIME MARA
56,OD/2011/WS 50,HAIDARI,I. ,HAMISI,01.09.1987,M,19.08.2011,TANZANIAN,S1168-0054,2009,,,ATHUMANI JOKA,BOX 6169 MOROGORO,PRIVATE,MKUYUNI S.S 6169 MOROGORO
57,OD/2011/WS 30,DAVID ,,RONALD,02.06.1991,M,19.08.2011,TANZANIAN,S0784-0244,2008,,,RONALD A. NTALO,BOX,PRIVATE,AIRWING S.S 1811 DSM
58,OD/2011/WS 71,KASSIAN ,,NYAMBA,04.08.1990,M,19.08.2011,TANZANIAN,S1674-0086,2008,,,THOMAS NYAMBA,BOX 9 NJOMBE,PRIVATE,PHILIP MANGULA S.S 
59,OD/2011/WS 80,MOHAMED ,,ATHUMANI,14.09.1992,M,19.08.2011,TANZANIAN,S1680-0089,2009,,,JAMILA M. YAHYA,BOX 61368 DSM,PRIVATE,MVUTI S.S 
60,OD/2011/WS 13,AYOUB ,,FREDRICK,29.07.1992,M,19.08.2011,TANZANIAN,S1813-0081,2010,,,FREDRICK ANDREA,KIGOMA 0752681969,GOVERNMENT,RUSIMBI S.S 476 KIGOMA
61,OD/2011/WS 56,IMANI ,BONIPHACE ,MUSSA,27.01.1990,M,19.08.2011,TANZANIAN,S0119-0048,2010,,,SALMON WISTON,BOX 128 NGARA KAGERA,PRIVATE,KIBAHA S.S 30053 KIBAHA PWANI
62,OD/2011/WS 21,CATHERINE,A. ,ELIAS,30.01.1987,F,19.08.2011,TANZANIAN,S0813-0010,2006,,,ELIAS ASSENGA,BOX 3083 ARUSHA,PRIVATE,MAHIDA S.S 432 MKUU-ROMBO
63,OD/2011/WS114,THOMAS ,,PETER,24.11.1991,M,19.08.2011,TANZANIAN,S3623-0172,2009,,,SALOME F. MAJIGE,BOX 170 TABORA,P. A,ST. VICENT S.S 138 URAMBO
64,OD/2011/WS 24,CHARLES  ,MATHIAS,KITAVILE,02.06.1993,M,19.08.2011,TANZANIAN,S2379-0086,2010,,,GEORGE M. MWAPAGATA,BOX 6035 DSM,PRIVATE,MAJANI YA CHAI S.S 18039 DSM
65,OD/2011/WS 36,EMMANUELY ,,PHILIPO,28.03.1992,M,19.08.2011,TANZANIAN,S1241-0176,2010,,,PHILIPO R. KANEMINI,BOX 3860 DSM,PRIVATE,JUHUDI S.S 70342 DSM
66,OD/2011/WS 74,MADUHU ,,SHIJA,07.01.1993,M,22.08.2011,TANZANIAN,S0333- 0242,2010,,,SHIJA SENGEREMA,BOX 8088 MWANZA,GOVERNMENT,MWANZA S.S 149 MWANZA
67,OD/2011/WS 01 ,ABDALLA ,MUSSA ,BILALI,25.11.1991,M,22.08.2011,TANZANIAN,S2198-0072,2010,,,MUSSA BILALI,BOX 27 SINGIDA,PRIVATE,NTIPA S.S 727 SINGIDA
68,OD/2011/WS 96 ,REVOCATUS ,,MGUSI,01.10.1990,M,22.08.2011,TANZANIAN,S0665-0091,2008,,,ZABLON MGUSI,BOX 344 MUSOMA,PRIVATE,MWEMBENI S.S 
69,OD/2013/WS106,SHEILA ,,KIMWERI,09.06.1992,F,22.08.2011,TANZANIAN,S0345-0119,2009,,,LATIFA MUSA,BOX 55043 DSM,P. A,USAGARA S.S 330 TANGA
70,OD/2011/WS 77,MICHAEL ,,NTULO,26.11.1990,M,22.08.2011,TANZANIAN,S0547- 0124,2008,,,JAMES NTULO,BOX 227 SUMBAWANGA,PRIVATE,MAZWI S.S 632 SUMBAWANGA
71,OD/2011/WS 72,KIMEA,M. ,IDDI,10.02.1990,M,22.08.2011,TANZANIAN,S1282-0135,2010,,,IDD MBILU,BOX 180 BOMBO,PRIVATE,UBIRI S.S 308 LUSHOTO
72,OD/2011/WS 52,HAMISI ,,JUMA,25.08.1978,M,22.08.2011,TANZANIAN,SS0139-0012, P0481-0019, P0608-0032,1997, 1998, 2010,,,JUMA JUMA,BOX 96 NEWALA,PRIVATE,MTWARA TECHNICAL S.S 104 MTWARA
73,OD/2011/WS 76 ,MATHEW ,,EDSON,12.10.1988,M,22.08.2011,TANZANIAN,S0740- 0092,2007,,,RAPHAEL EDSON,BOX 05 NKINGA,PRIVATE,ALI HASSAN MWINYI S.S 1OO TABORA
74,OD/2011/WS 33,ELISHA  ,BONIFACE,KAGIYE,23.12.1988,M,22.08.2011,TANZANIAN,S0828-0052,2010,,,ELINA H. MAHABA,BOX 204 KASULU,GOVERNMENT,MUBONDO S.S 140 KASULU
75,OD/2011/WS 109,SINGIRA ,,ANDREA,09.01.1985,M,22.08.2011,TANZANIAN,P0320-0300, P0566-0520,2005, 2007,,,ANDREA BWICHA,BOX 1208 KIGOMA,PRIVATE,BUTIMBA T.C.CENTRE - KIGOMA SEC
76,OD/2011/WS 78,MKANGALA ,,MFUNGO,07.07.1992,M,23.08.2011,TANZANIAN,S3280- 0139,2010,,,DEUS MFUNGO,BOX 891 MWANZA,PRIVATE,LUMALA S.S 891 MWANZA
77,OD/2011/WS 61,JOFREY ,HENRY ,KIAMA,19.06.1993,M,23.08.2011,TANZANIAN,S1196-0145,2010,,,NURDIN A. MBAGA,BOX 1989 DODOMA,P. A,KIKUYU S.S 884 DODOMA
78,OD/2011/WS 40, FLOWIN ,,MKECHI,13.01.1990,M,23.08.2011,TANZANIAN,S0108-0098,2009,,,IGNAS MKECHI,BOX 47 LUDEWA,P. A,IFUNDA TECH. S.S 11 IFUNDA
79,OD/2011/WS 79,MOHAMED,A. ,KUCHEJE,16.07.1992,M,22.08.2011,TANZANIAN,S0582- 0017,2010,,,ALLY BAKARI KUCHEJE,BOX 24506 DSM,PRIVATE,UNUNIO ISLAMIC HIGH S.32654DSM
80,OD/2011/WS 53,HAPSHI ,,SAID,25.02.1991,M,22.08.2011,TANZANIAN,S1680-0079,2009,,,NURU M. YAHYA,BOX 71968 DSM,PRIVATE,MVUTI S.S 
81,OD/2011/WS 26,CHRISTINA ,FRIMIN ,ASSENGA,15.12.1992,F,22.08.2011,TANZANIAN,S1484-0010,2010,,,I.E.C STUDENT CENTER,BOX              ARUSHA,PRIVATE,SAKILA S. S
82,OD /2011/WS 98,ROBERT,P. ,MASABILE,01.01.1990,M,22.08.2011,TANZANIAN,S2211- 0092,2008,,,MASABILE NDOBONIMPAYE,BOX 2018 KIBONDO,PRIVATE,MWILAMVYA S.S 127 KASULU
83,OD/2011/WS 45,GLORIA,S.,MUSHI,21.10.1990,F,22.08.2011,TANZANIAN,P0134-0083,2010,,,SILIVEST S. MUSHI,BOX 3041 MOSHI,P. A,MOSHI S.S 
84,OD/2011/WS 65,JOSEPH ,,ROBERT,11.09.1990,M,22.08.2011,TANZANIAN,S0546-0228,2010,,,ROBERT KAPAYA,BOX 8088 MWANZA,PRIVATE,PAMBA S.S 632 MWANZA
85,OD/2011/WS 27,CHRISTOPHER ,,MBUNDA,26.11.1990,M,22.08.2011,TANZANIAN,S1491-0081,2009,,,INNOCENT R. MBUNDA,BOX 23 LIWALE LINDI,PRIVATE,SHANGANI S.S 1068 MTWARA
86,OD/2011/WS 32,ELIA ,,LAMSON,28.02.1988,M,22.08.2011,TANZANIAN,S0524-0043,2008,,,JOSICK LAMSON,BOX 34 UBARUKU,PRIVATE,RUJEWA S.S
87,OD/2011/WS 06 ,AMBROSE ,,MAYUNGA,23.05.1990,M,22.08.2011,TANZANIAN,S2365-0003,2008,,,SYLVESTER N. MAYUNGA,BOX 7344 DSM,PRIVATE,ANDREW FAZA MEMORIAL S.S
88,OD/2011/WS 23,CHARLES  ,JOSEPH,MKUDE,01.11.1991,M,22.08.2011,TANZANIAN,S2358-0267,2010,,,JOSEPH E. MKUDE,BOX,P. A,MTAKUJA S.S
89,OD/2011/WS 05,AMANI ,,MFUNGATI,08.10.1990,M,23.08.2011,TANZANIAN,S2391-0048,2009,,,ISAACK W. NYAKONJI,BOX 174 SINGIDA,PRIVATE,LUDUGA S.S 88 ILEMBULA NJOMBE
90,OD/2011/WS 09,ANTHONY ,,MODEST,25.10.1989,M,23.08.2011,TANZANIAN,S2211-0047,2008,,,KORONEL MODEST,BOX 100 KASULU,PRIVATE,MWILAMVYA S.S 127 KASULU
91,OD/2011/WS 41,FRANK ,,KAGUO,17.01.1992,M,23.08.2011,TANZANIAN,S3532-0007,2009,,,SAMSON KAGUO,BOX 156 KIBAHA,P. A,ACACIA S. S 172 MLANDIZI
92,OD/2011/WS103,SAMWEL ,,MASALU,06.04.1990,M,23.08.2011,TANZANIAN,S0136-0097,2010,,,JOSEPH A. MAGENI,BOX 34180 DSM,GOVERNMENT,MUSOMA TECH. S.S 54 MUSOMA
93,OD/2011/WS 10,ANTONY,J.,KIBWANA,26.08.1989,M,23.08.2011,TANZANIAN,S0806-0233,2008,,,DORICA W. NDAHANI,BOX 176 DODOMA,PRIVATE,CITY S.S 781 DODOMA
94,OD/2011/WS 55,IDD ,,KASSIM,25.02.1989,M,23.08.2011,TANZANIAN,S0147-0184,2009,,,KASSIM A. MNGWAYA,BOX 46191 DSM,P. A,PUGU S.S 
95,OD/2011/WS 116,TYSON ,,KILASA,05.06.1991,M,23.08.2011,TANZANIAN,s1227-0117,2010,,,ATHUMANI KAZIMILI,BOX 20 MISSUNGWI,GOVERNMENT,MISASI S.S 11617 MWANZA
96,OD/2011/WS 35,EMMANUEL ,,MADUHU,28.02.1990,M,29.08.2011,TANZANIAN,S3447-0020,2010,,,MADUHU MAKALANGA,BOX 109 BARIADI,PRIVATE,MWANTIMBA S.S 126 BARIADI
97,OD/2011/WS95,RESPICIUS ,,KAHAMBA,23.11.1989,M,29.08.2011,TANZANIAN,S1689-0153,2008,,,REVELIAN KAHAMBA,BOX 30 NGARA,P. A,PEACE S.S 1586 BUKOBA
98,OD /2011/WS 69,KARIMU ,,NGULUGULU,25.01.1993,M,01.09.2011,TANZANIAN,S3154-0084,2010,,,MBARAKA A. NGULUGULU,BOX 30850 PWANI,PRIVATE,SIMBANI S.S 30453 PWANI
99,OD/2011/WS 39,FESTO,S.,WAMBURA,15.07.1990,M,05.09.2011,TANZANIAN,S0144-0062,2008,,,JOSEPH WAMBURA,BOX 1502 MUSOMA,PRIVATE,NSUMBA S.S
100,OD/2011/WS 94,RAJABU,L.,SHABAN,08.10.1991,M,05.09.2011,TANZANIAN,S2644-0110,2010,,,YOHANA STEPHEN,BOX 9153 DSM,P. A,KINAMPANDA S.S 538 SINGIDA
101,OD/2011/WS 68,KAMUYA,M. K.,LAIZER,28.06.1992,M,05.09.2011,TANZANIAN,S0978-0065,2010,,,MASAGO LAIZER,BOX 01 LOLIONDO,GOVERNMENT,DIGODIGO S.S 52 LOLIONDO
102,OD/2011/WS 25,CHARLES ,,MWINYIKOMBO,14.01.1988,M,06.09.2011,TANZANIAN,S0722-0094,2008,,,JOYCE G. MWINYIKOMBO,BOX 10226 DSM,PRIVATE,SAHARE S.S 5765 TANGA
103,OD/2011/WS 58,ISSA ,,ALLY ,13.07.1992,M,07.09.2011,TANZANIAN,S1706-0088,2010,,,ABDALLAH ATHUMANI,BOX,GOVERNMENT,PASIANSI S.S 6391 MWANZA
104,OD/2011/WS 62,JOHN ,,LAURENT,28.10.1978,M,07.09.2011,TANZANIAN,S0546-0086,1997,,,BERNADETHA BASANDA,BOX 5007 DSM,P. A,PAMBA S.S 632 MWANZA
105,OD/2011/WS 14,BARAGAMBA ,,JUMA,15.12.1984,M,07.09.2011,TANZANIAN,S0334-0080, P0616-0108,2005, 2006,,,JUMA MSAFIRI,BOX 98 KIGOMA,PRIVATE,MWENGE S.S 195 SINGIDA
106,OD/2011/WS 113,SYLIVESTER ,B. ,KABADI,16.06.1982,M,07.09.2011,TANZANIAN,S1164-0034,2001,,,BEATUS KABADI,BOX 72201 DSM,P. A,MISSUNGWI S.S 62 MISSUNGWI
107,OD/2011/WS 70,KASIM ,,KINYORO,11.05.1988,M,07.09.2011,TANZANIAN,S1263- 0057, P 0254- 0160,2007, 2009,,,SALEH A. KINYORO,BOX 122 HANDENI,PRIVATE,MKUYU S.S 243 TANGA WAL UL ASR GIRLS
108,OD/2011/WS 51,HAJI ,,OMARI,13.06.1992,M,08.09.2011,TANZANIAN,S2502-0144,2010,,,OMARI H. MAKALABO,BOX 60035 DSM,PRIVATE,MBWENI S.S 77191 DSM
109,OD/2011/WS 08,ANGELBETH,P. ,MSAK,16.06.1991,F,09.09.2011,TANZANIAN,S0265-0004,2008,,,NICEGRACE P. MSAKI,BOX 16249 DSM,PRIVATE,CORNELIUS GIRLS S.S
110,OD/2011/WS 07 ,ANDREA ,MAZOYA ,ABEL,06.12.1989,M,12.09.2011,TANZANIAN,S1051-0113,2010,,,ABEL MAZOYA,BOX,PRIVATE,MKOLANI S.S 11638 MWANZA
111,OD/2011/WS 48,GRATIAN ,,CHARLES,24.07.1991,M,19.09.2011,TANZANIAN,S0871-0081,2010,,,BERTHA J. NDYAMUKAMA,BOX 895 BUKOBA,P. A,KABALE S.S 1807 BUKOBA
112,OD/2011/WS 20,BOSCO ,,VICTOR,12.10.1983,M,19.09.2011,TANZANIAN,S2492-0028,2010,,,LAURENT SECHU,BOX 4218 DSM,PRIVATE,MAWENGI S.S 145 DSM
113,OD/2011/WS 119,ABDILAHI,H.,MSOYA,28.12.1987,M,13.10.2011,TANZANIAN,S0783-0023,2006,,,HILDA AMBILIKILE,BOX 77383 DSM,PRIVATE,BEREKO S.S 90 KONDOA
114,OD/2011/WS 120,EZRA ,DAVID ,MUGANDA,28.11.1992,M,13.10.2011,TANZANIAN,S0546-0200,2010,,,BASLAUS M. MUGANDA,BOX 2356 MWANZA,PRIVATE,PAMBA S.S 632 MWANZA
115,OD/2011/WS121 ,FARAJA,I. ,MAKURI,23.07.1992,F,13.10.2011,TANZANIAN,S3719-0012,2010,,,HAPPINESS MRITA,BOX 51 MWANGA,P. A,MSITU WA TEMBO S.S
116,OD/2011/WS 122,JULIUS ,,NGUYE,18.09/1989,M,13.10.2011,TANZANIAN,S1581-0112,2008,S0156-0630,2011,MOSES NGUYE,BOX 413 TANGA,PRIVATE,NGUVUMALI S.S 6049 TANGA- TANGA TECH
117,OD/2011/WS 123,RESTITUTA,V.,KISSIMA,28.08.1992,F,17.10.2011,TANZANIAN,S1272-0067,2010,,,VICTOR KISSIMA,BOX 35059 DSM,PRIVATE,KISARIKA S.S 54 MOSHI
