,,,,
,,IRE,,
S/N,REG.NO.,FIRST NAME,SEX,SPONSOR
1,OD/2014/IRE01,ABDALLAH MZAMILU,M,P
2,OD/2014/IRE02,ABUBAKAR JUMA,M,G
3,OD/2014/IRE03,AGNESS KATO,F,G
4,OD/2014/IRE04,ALLY ABDALLAH ALLY,M,G
5,OD/2014/IRE05,AMIR R.THABIT,M,P
6,OD/2014/IRE06,ANNA MARCUS KIBIKI,F,PA
7,OD/2014/IRE07,ARAPHAT M. LINNY,M,PA
8,OD/2014/IRE08,BETRAM MAGANI,M,P
9,OD/2014/IRE09,CALVIN MHUMBA,M,PA
10,OD/2014/IRE10,DANIE DEODATUS NDAGA,M,P
11,OD/2014/IRE11,DANIEL MATHIAS,M,G
12,OD/2014/IRE12,ESSU CASBETI MTITU,F,PA
13,OD/2014/IRE13,ESTER NESTORY,F,G
14,OD/2014/IRE14,GLADNESS F.KINYANGE,F,PA
15,OD/2014/IRE15,HAMISI ABBAKARI SHABANI,M,G
16,OD/2014/IRE16,HAMZA SELEMANI,M,PA
17,OD/2014/IRE17,HEZEKIA M.NYAMKO,M,P
18,OD/2014/IRE18,ISSA MUHARAMI,M,G
19,OD/2014/IRE19,JOHN A.MUSHI,M,P
20,OD/2014/IRE20,KARIM SULEIMANY MARTINI,M,G
21,OD/2014/IRE21,KATONO JOSEPH,M,PA
22,OD/2014/IRE22,KELVIN A. MASSAWE,M,PA
23,OD/2014/IRE23,KRISPIN AUGEN ORIO,M,P
24,OD/2014/IRE24,LEMY MUSA  LUVANDA,M,PA
25,OD/2014/IRE25,MAHAMOOD ABDI MICKIDAD,M,G
26,OD/2014/IRE26,MARIAM IDDY,F,G
27,OD/2014/IRE27,MASOD EMMANUEL,M,P
28,OD/2014/IRE28,MAYUNGA S.JIDAYI,M,G
29,OD/2014/IRE29,MBEZI HOSSENI,M,P.A
30,OD/2014/IRE30,MESIAKI PETRO,M,P
31,OD/2014/IRE31,OWIYO W. OUMA,M,G
32,OD/2014/IRE32,PAUL LASWAY EDWARD,M,PA
33,OD/2014/IRE33,PERICY A.MNYAMOGA,F,P
34,OD/2014/IRE34,POLYCARP GERALD,M,P
35,OD/2014/IRE35,REBECCA PATRICK,F,G
36,OD/2014/IRE36,REHEMA JULIUS MAFWIRI,F,P
37,OD/2014/IRE37,SONENGA MKAMA,M,P.A
38,OD/2014/IRE38,UPENDO EZEKIEL MINJA,F,G
39,OD/2014/IRE39,VALENTINE MAZEBELE TIRUHWAMO,M,PA
40,OD/2014/IRE40,VINCENT PROSPER TEMU,M,G
40,OD/2014/IRE41,ZABLON CHARLES,M,G
42,OD/2014/IRE42,UPENDO A.MWASAPI,F,PA
43,OD/2014/IRE43,EDINA EDWARD,F,P
44,OD/2014/IRE44,DILU NCHILA,M,PA
45,OD/2014/IRE45,HAPPINESS D.SWAI,F,PA
46,OD/2014/IRE46,MATHIAS D.BOMA,M,P
47,OD/2014/IRE47,JAMES MUSA,M,P
48,OD/2014/IRE48,ADAMU MWANTEMBO,M,P
49,OD/2014/IRE49,RASHID HASHIM,M,P
50,OD/2014/IRE50,WILLIAM DAUDI KATANI,M,P
51,OD/2013/IRE08,BARAKA JACOB,M,PA
52,OD/2013/IRE42,SHABANI MOHAMED,M,P
