<?xml version="1.0" encoding="UTF-8"?>
<!DOCTYPE svg PUBLIC "-//W3C//DTD SVG 1.1//EN" "http://www.w3.org/Graphics/SVG/1.1/DTD/svg11.dtd">
<!-- Creator: CorelDRAW X8 -->
<svg xmlns="http://www.w3.org/2000/svg" xml:space="preserve" width="1.38893in" height="1.38893in" version="1.1" style="shape-rendering:geometricPrecision; text-rendering:geometricPrecision; image-rendering:optimizeQuality; fill-rule:evenodd; clip-rule:evenodd"
viewBox="0 0 1223 1223"
 xmlns:xlink="http://www.w3.org/1999/xlink">
 <defs>
  <style type="text/css">
   <![CDATA[
    .fil0 {fill:#17ECC0}
    .fil2 {fill:#ECF0F5}
    .fil1 {fill:white}
   ]]>
  </style>
 </defs>
 <g id="Layer_x0020_1">
  <metadata id="CorelCorpID_0Corel-Layer"/>
  <circle class="fil0" cx="611" cy="611" r="611"/>
  <g id="_827753811568">
   <g>
    <rect class="fil1" x="311" y="333" width="70.192" height="70.192"/>
    <rect class="fil1" x="418" y="333" width="494.27" height="70.192"/>
    <rect class="fil1" x="311" y="495" width="70.192" height="70.192"/>
    <rect class="fil1" x="418" y="495" width="494.27" height="70.192"/>
    <rect class="fil1" x="311" y="657" width="70.192" height="70.192"/>
    <rect class="fil1" x="418" y="657" width="494.27" height="70.192"/>
    <rect class="fil1" x="311" y="820" width="70.192" height="70.192"/>
    <rect class="fil1" x="418" y="820" width="494.27" height="70.192"/>
   </g>
   <polygon class="fil2" points="912,820 611,820 611,890 912,890 "/>
   <polygon class="fil2" points="611,728 912,728 912,657 611,657 "/>
   <polygon class="fil2" points="611,565 912,565 912,495 611,495 "/>
   <polygon class="fil2" points="611,403 912,403 912,333 611,333 "/>
  </g>
 </g>
</svg>
