<?xml version="1.0" encoding="UTF-8"?>
<!DOCTYPE svg PUBLIC "-//W3C//DTD SVG 1.1//EN" "http://www.w3.org/Graphics/SVG/1.1/DTD/svg11.dtd">
<!-- Creator: CorelDRAW X8 -->
<svg xmlns="http://www.w3.org/2000/svg" xml:space="preserve" width="2.52591in" height="2.91666in" version="1.1" style="shape-rendering:geometricPrecision; text-rendering:geometricPrecision; image-rendering:optimizeQuality; fill-rule:evenodd; clip-rule:evenodd"
viewBox="0 0 6797 7849"
 xmlns:xlink="http://www.w3.org/1999/xlink">
 <defs>
  <font id="FontID0" horiz-adv-x="500" font-variant="normal" style="fill-rule:nonzero" font-style="normal" font-weight="400">
	<font-face 
		font-family="DFMincho-SU">
		<font-face-src>
			<font-face-name name="DFMincho-SU"/>
		</font-face-src>
	</font-face>
   <missing-glyph><path d="M0 0z"/></missing-glyph>
   <glyph unicode="D" horiz-adv-x="500" d="M447.34 355.505c0,-237.666 -74.0124,-356.499 -221.676,-356.499l-212.991 0 0 28.3273c17.6546,0 29.321,4.16844 35.1543,12.6602 5.17506,7.1754 7.83357,20.5067 7.83357,40.0067l0 566.495c0,21.5004 -2.32297,34.509 -6.82695,39.0001 -3.8329,4.67175 -15.6671,6.83986 -35.1672,6.83986l0 29.334 202.163 0c154.336,0 231.51,-122.008 231.51,-366.165zm-163.176 -1.00662c0,225.341 -16.8286,337.837 -50.8343,337.837 -8.32398,0 -13.6668,-3.17473 -15.4994,-9.66614 -1.32926,-5.83324 -2.00034,-18.3386 -2.00034,-37.1675l0 -565.501c0,-34.9994 4.16844,-52.6669 12.6731,-52.6669 14.325,0 26.327,22.8296 36.1609,68.334 13.0086,57.9968 19.5,144.334 19.5,258.831z"/>
   <glyph unicode="R" horiz-adv-x="500" d="M494.16 0l-179.656 0 -100.675 278.331 0 -205.002c0,-29.334 17.6675,-43.9945 52.8347,-43.9945l0 -29.334 -256.83 0 0 29.334c30.4954,0 45.827,16.4931 45.827,49.8277l0 566.34c0,16.9964 -3.16182,28.9984 -9.83391,36.1609 -6.49141,5.83324 -18.4934,8.84019 -35.9931,8.84019l0 29.1662 211.829 0c155.665,0 233.342,-61.8297 233.342,-185.502 0,-84.0012 -42.1748,-140.333 -126.834,-168.996l115.168 -291.843c11.1632,-29.334 27.9918,-43.9945 50.8214,-43.9945l0 -29.334zm-201.156 544.001c0,40.3293 -4.83952,74.1673 -14.6734,101.501 -10.9954,29.9921 -25.6688,45.0011 -43.9945,45.0011 -13.6668,0 -20.5067,-13.6668 -20.5067,-41.0004l0 -264.664c23.5007,2.49074 43.0008,20.4938 58.6679,53.6606 13.6668,30.4954 20.5067,65.6626 20.5067,105.502z"/>
   <glyph unicode="A" horiz-adv-x="500" d="M490.173 0l-247.009 0 0 23.5007c14.3379,0 23.8363,2.82628 28.3402,8.65952 0,0 2.00034,6.33655 5.83324,18.6741 2.65851,8.50465 -0.67108,31.1665 -9.83391,68.334l-32.1731 143.495 -108.328 0 -30.3406 -153.329c-6.49141,-33.8379 -9.66614,-53.9962 -9.66614,-60.5005 0,-16.9964 20.1711,-25.3333 60.5005,-25.3333l0 -23.5007 -137.662 0 0 23.5007c27.3336,0 45.5044,23.3329 54.6672,70.3344l112.329 592.667 110.341 47.8274 164.002 -665.002c7.16249,-30.6632 20.1582,-45.827 39.0001,-45.827l0 -23.5007zm-263.67 288.164l-51.6732 213.829 -43.9945 -213.829 95.6677 0z"/>
   <glyph unicode="I" horiz-adv-x="500" d="M389.665 0.993715l-279.337 0 0 28.3402 15.6671 0c11.0083,0 21.1777,4.16844 30.3406,12.6602 8.33688,9.17573 12.6602,20.1711 12.6602,33.1669l0 571.335c0,29.334 -12.9957,44.0074 -39.1679,44.0074l-19.5 0 0 29.1662 279.337 0 0 -29.1662 -21.5004 0c-24.6622,0 -37.1675,-14.6734 -37.1675,-44.0074l0 -571.335c0,-30.4954 13.1635,-45.827 39.1679,-45.827l19.5 0 0 -28.3402z"/>
   <glyph unicode="T" horiz-adv-x="500" d="M477.499 511.673l-27.3336 -7.83357c-17.4997,37.8257 -37.6708,74.6577 -60.5005,110.496 -26.0044,42.1619 -43.9945,63.3268 -53.6606,63.3268 -4.00067,0 -6.00101,-10.0017 -6.00101,-30.1599l0 -566.508c0,-35.1672 26.1592,-52.6669 78.168,-52.6669l0 -28.3273 -316.337 0 0 28.3273c51.9958,0 78.168,17.1771 78.168,51.6732l0 564.495c0,22.8425 0,32.3409 0,28.3402 0,4.00067 -1.6648,5.83324 -5.00729,5.83324 -16.1575,0 -55.3254,-57.1709 -117.168,-171.835l-25.3333 4.00067 35.1672 208.835 384.671 0 35.1672 -207.996z"/>
   <glyph unicode="E" horiz-adv-x="500" d="M481.5 214.836l-47.8274 -215.83 -415.166 0 0 28.3273c29.9921,0 44.9882,17.3319 44.9882,51.828l0 560.507c0,18.829 -2.99405,32.4958 -8.82729,41.0004 -4.50398,7.16249 -16.506,10.6599 -36.1609,10.6599l0 30.3406 408.327 0 34.1735 -207.002 -34.1735 -4.83952c-27.3336,58.5001 -49.1695,98.8424 -65.4949,121.001 -30.6761,40.3423 -64.8367,60.5005 -102.508,60.5005 -23.5007,0 -35.1672,-17.1642 -35.1672,-51.6603l0 -240.169 24.3396 0c22.1586,0 40.3293,8.33688 54.6672,25.3333 19.6678,21.5004 29.334,55.3383 29.334,101.501l45.9948 0 0 -285.17 -47.9951 0c0,47.5047 -9.66614,82.3364 -29.1662,104.508 -13.6668,16.9964 -31.6698,25.5011 -53.8413,25.5011l-23.3329 0 0 -292.01c0,-34.4961 12.3376,-51.828 37.1675,-51.828l27.3336 0c49.3373,0 101.165,64.5011 155.174,193.336l38.1612 -5.83324z"/>
   <glyph unicode="S" horiz-adv-x="500" d="M450.166 177.669c0,-53.9962 -17.4997,-99.8361 -52.6669,-137.675 -37.8386,-39.0001 -84.3367,-58.5001 -139.662,-58.5001 -16.3382,0 -38.1741,4.50398 -65.5078,13.6668 -26.6625,9.00796 -45.156,13.6668 -55.6609,13.6668 -5.16216,0 -11.6665,-2.32297 -19.5,-6.82695 -10.3372,-4.67175 -22.507,-11.8342 -36.1738,-21.5004l-32.1602 248.997 29.334 6.83986c14.3379,-66.3337 39.3356,-120.833 75.161,-163.008 32.5087,-39.826 65.8433,-59.6616 99.6683,-59.6616 18.8419,0 34.8316,7.49803 47.8403,22.4941 12.9957,15.009 19.5,36.5093 19.5,64.5011 0,39.0001 -22.8425,86.5048 -68.334,142.501 -42.3426,50.1762 -85.0078,100.004 -128.009,149.341 -45.4915,61.9975 -68.334,120.162 -68.334,174.829 0,48.834 17.8352,88.9956 53.6735,120.162 33.8379,29.334 76.5032,44.0074 127.996,44.0074 16.8415,0 36.5093,-5.00729 58.5001,-14.6734 21.5004,-9.83391 34.1735,-14.6605 38.1741,-14.6605 12.3246,0 30.9987,12.6602 55.6609,37.9935l43.0008 -239.163 -35.1672 -6.83986c-20.1711,61.1716 -47.5047,112.341 -82.0009,153.342 -30.6632,35.8254 -55.9965,53.6606 -76.1676,53.6606 -35.1672,0 -52.8347,-22.4941 -52.8347,-67.3274 0,-28.6629 22.8425,-69.3407 68.334,-122.162 75.5094,-88.5052 117.839,-139.34 127.002,-152.335 45.6722,-64.3334 68.334,-125.002 68.334,-181.669z"/>
   <glyph unicode=" " horiz-adv-x="500" d=""/>
   <glyph unicode="M" horiz-adv-x="500" d="M496.999 691.329c-28.0047,0 -41.9941,-15.1638 -41.9941,-45.827l0 -578.174c0,-16.8286 2.65851,-27.6563 7.83357,-32.1602 5.32993,-3.8329 15.3316,-5.83324 30.3277,-5.83324l0 -28.3402 -232.336 0 0 28.3402c22.6748,0 34.1735,12.6602 34.1735,37.9935l0 326.171 -73.3413 -399.332 -31.1665 0 -109.502 498.006 0 -432.679c0,-20.1582 16.3382,-30.1599 48.834,-30.1599l0 -28.3402 -119.001 0 0 28.3402c23.3329,0 34.9994,10.0017 34.9994,30.1599l0 592.835c0,26.0044 -11.9891,39.0001 -35.9931,39.0001l0 28.3402 178.662 0 71.341 -330.997 60.5005 330.997 176.662 0 0 -28.3402z"/>
   <glyph unicode="G" horiz-adv-x="500" d="M487.333 283.17c-26.6625,0 -39.9938,-10.0017 -39.9938,-30.1728l0 -274.498c-37.1675,16.9964 -67.5081,25.3333 -90.841,25.3333 -7.16249,0 -20.1711,-3.8329 -39.1679,-11.6665 -18.829,-7.16249 -36.6642,-10.6728 -53.6606,-10.6728 -72.3347,0 -126.666,38.3419 -163.008,115.168 -29.9921,64.5011 -45.0011,149.844 -45.0011,255.836 0,114.006 20.8422,205.841 62.5008,275.504 40.3423,70.3344 94.0029,105.334 161.175,105.334 21.5004,0 43.6589,-5.17506 66.3337,-15.4994 22.8296,-10.505 34.4961,-15.6671 35.1672,-15.6671 7.16249,0 24.83,10.6599 52.8347,32.1602l14.6605 -254.83 -47.9951 -6.82695c-14.8412,68.3211 -33.5024,123.995 -55.6739,166.996 -20.8293,42.3297 -41.6586,62.5008 -62.5008,60.5005 -15.4994,-1.34216 -28.8306,-30.5083 -39.9938,-87.8341 -13.6668,-65.8304 -20.5067,-153.006 -20.5067,-261.67 0,-107.502 7.49803,-193.826 22.507,-258.831 10.9954,-50.8343 22.4941,-76.1676 34.1606,-76.1676 5.83324,0 9.83391,1.6648 11.6665,4.82662 2.67142,5.83324 4.00067,18.8419 4.00067,39.0001l0 193.503c0,14.8412 -3.66513,24.004 -10.8276,27.3336 -3.17473,1.83257 -12.6731,2.83919 -28.3402,2.83919l0 28.3273 232.504 0 0 -28.3273z"/>
   <glyph unicode="X" horiz-adv-x="500" d="M492.173 0l-270.51 0 0 29.334c32.0054,0 47.8403,8.50465 47.8403,25.3333 0,6.50432 -2.50365,17.6675 -7.83357,33.1669l-61.5071 183.67 -82.0009 -181.669c-9.83391,-20.1711 -13.6668,-32.1731 -11.6665,-36.1738 3.8329,-16.1575 27.011,-24.3267 69.3407,-24.3267l0 -29.334 -168.002 0 0 29.334c30.005,0 52.6669,16.4931 68.334,49.8277l112.329 246.003 -114.329 314.504c-6.50432,18.1708 -12.9957,30.6632 -19.5,37.1675 -8.50465,8.99506 -21.1648,13.6668 -38.0064,13.6668l0.83885 29.1662 246.17 0 0 -29.1662c-15.6671,0 -25.3333,-1.00662 -29.334,-3.00696 -3.8329,-2.00034 -5.83324,-7.83357 -5.83324,-17.4997 0,-2.65851 1.32926,-6.82695 4.00067,-12.828l45.827 -144.502c13.0086,30.005 31.8376,73.0058 56.6676,129.002 4.50398,10.9954 6.83986,21.5004 6.83986,31.1665 0,11.6665 -18.6741,17.6675 -55.6739,17.6675l0 29.1662 168.841 0 0 -29.1662c-41.6715,0 -68.0114,-12.5053 -79.0068,-37.1675l-84.0012 -179.669 128.009 -346.665c13.6668,-35.8383 24.3267,-59.339 32.1602,-70.3344 9.16283,-14.3379 22.4941,-23.5007 40.0067,-27.3336l0 -29.334z"/>
  </font>
  <style type="text/css">
   <![CDATA[
    @font-face { font-family:"DFMincho-SU";font-variant:normal;font-style:normal;font-weight:normal;src:url("#FontID0") format(svg)}
    .fil10 {fill:none}
    .fil7 {fill:#373435}
    .fil6 {fill:#00A654}
    .fil17 {fill:#00C0EF}
    .fil12 {fill:#15262E}
    .fil0 {fill:#324359}
    .fil3 {fill:#BCBCBC}
    .fil8 {fill:#DC9569}
    .fil16 {fill:#E6007E}
    .fil9 {fill:#EBB88B}
    .fil1 {fill:#ECF0F5}
    .fil11 {fill:#F39C13}
    .fil13 {fill:#F5CF87}
    .fil2 {fill:white}
    .fil5 {fill:#ED3237;fill-rule:nonzero}
    .fil4 {fill:#00A654;fill-rule:nonzero}
    .fil14 {fill:#DDDDDD;fill-rule:nonzero}
    .fil15 {fill:#E0E0D1;fill-rule:nonzero}
    .fnt0 {font-weight:normal;font-size:820.959px;font-family:'DFMincho-SU'}
   ]]>
  </style>
   <clipPath id="id0">
    <path d="M3399 0l1699 981 1699 981 0 1962 0 1963 -1699 981 -1699 981 -1700 -981 -1699 -981 0 -1963 0 -1962 1699 -981 1700 -981z"/>
   </clipPath>
 </defs>
 <g id="Layer_x0020_1">
  <metadata id="CorelCorpID_0Corel-Layer"/>
  <polygon class="fil0" points="3399,0 5098,981 6797,1962 6797,3924 6797,5887 5098,6868 3399,7849 1699,6868 0,5887 0,3924 0,1962 1699,981 "/>
  <g style="clip-path:url(#id0)">
   <g id="_503272566048">
    <g>
     <rect class="fil1" x="-15" y="1032" width="4668" height="5954"/>
     <rect class="fil2" x="-15" y="1032" width="2844" height="5873"/>
     <g>
      <rect class="fil3" x="215" y="1253" width="1092" height="1101" rx="167" ry="178"/>
      <polygon class="fil4" points="434,1667 660,1886 1074,1491 1189,1610 660,2117 318,1786 "/>
      <rect class="fil3" x="215" y="2510" width="1092" height="1101" rx="167" ry="178"/>
      <polygon class="fil4" points="434,2924 660,3144 1074,2748 1189,2867 660,3374 318,3043 "/>
      <rect class="fil3" x="215" y="3768" width="1092" height="1101" rx="167" ry="178"/>
      <rect class="fil3" x="215" y="5025" width="1092" height="1101" rx="167" ry="178"/>
      <polygon class="fil4" points="434,5439 660,5658 1074,5262 1189,5382 660,5889 318,5558 "/>
      <polygon class="fil5" points="491,3894 746,4148 1001,3894 1147,4042 893,4294 1147,4546 1001,4693 746,4440 491,4693 345,4546 599,4294 345,4042 "/>
      <path class="fil3" d="M1657 1337l2726 0c44,0 80,35 80,79l0 0c0,44 -36,79 -80,79l-2726 0c-43,0 -79,-35 -79,-79l0 0c0,-44 36,-79 79,-79zm0 775l2726 0c44,0 80,35 80,79l0 0c0,44 -36,79 -80,79l-2726 0c-43,0 -79,-35 -79,-79l0 0c0,-44 36,-79 79,-79zm0 -388l2726 0c44,0 80,36 80,80l0 0c0,43 -36,79 -80,79l-2726 0c-43,0 -79,-36 -79,-79l0 0c0,-44 36,-80 79,-80z"/>
      <path class="fil3" d="M1657 2594l2726 0c44,0 80,36 80,79l0 0c0,44 -36,80 -80,80l-2726 0c-43,0 -79,-36 -79,-80l0 0c0,-43 36,-79 79,-79zm0 388l2726 0c44,0 80,35 80,79l0 0c0,43 -36,79 -80,79l-2726 0c-43,0 -79,-36 -79,-79l0 0c0,-44 36,-79 79,-79z"/>
      <path class="fil3" d="M1657 3812l2726 0c44,0 80,35 80,79l0 0c0,44 -36,79 -80,79l-2726 0c-43,0 -79,-35 -79,-79l0 0c0,-44 36,-79 79,-79zm0 387l2726 0c44,0 80,36 80,79l0 0c0,44 -36,80 -80,80l-2726 0c-43,0 -79,-36 -79,-80l0 0c0,-43 36,-79 79,-79z"/>
      <path class="fil3" d="M1657 5109l2726 0c44,0 80,35 80,79l0 0c0,43 -36,79 -80,79l-2726 0c-43,0 -79,-36 -79,-79l0 0c0,-44 36,-79 79,-79zm0 775l2726 0c44,0 80,35 80,79l0 0c0,44 -36,79 -80,79l-2726 0c-43,0 -79,-35 -79,-79l0 0c0,-44 36,-79 79,-79zm0 -388l2726 0c44,0 80,36 80,79l0 0c0,44 -36,80 -80,80l-2726 0c-43,0 -79,-36 -79,-80l0 0c0,-43 36,-79 79,-79z"/>
     </g>
     <rect class="fil6" x="1635" y="6165" width="2757" height="740" rx="155" ry="150"/>
     <g transform="matrix(0.513851 0 0 1 -280.602 6814.94)">
      <text x="1263" y="15"  class="fil6 fnt0">EXAM</text>
     </g>
     <g transform="matrix(0.513851 0 0 1 -280.602 6814.94)">
      <text x="2905" y="15"  class="fil7 fnt0">    </text>
     </g>
     <g transform="matrix(0.513851 0 0 1 -280.602 6814.94)">
      <text x="4547" y="15"  class="fil2 fnt0">REGISTERED</text>
     </g>
     <g>
      <path class="fil8" d="M4010 2718c100,-17 206,12 263,109 30,52 83,123 143,198 64,33 154,80 251,129 152,76 314,154 425,191 111,37 208,62 306,82 8,-74 1,-125 -8,-210 -10,-84 -151,-391 -214,-491 -63,-100 -249,-155 -513,-140 -31,2 -64,5 -98,8 -282,27 -480,108 -733,-31 0,0 77,69 178,155z"/>
      <path class="fil9" d="M3832 2563c0,0 -101,-83 6,-176 108,-92 324,-185 866,-255 541,-71 501,-1 578,36 77,37 475,305 744,556 269,251 225,621 225,841 0,220 -7,381 -16,495 -9,115 -24,196 -13,256 11,59 -724,830 -724,830 0,0 -723,-749 -943,-1119 -220,-369 -669,-951 -669,-951 0,0 -148,-176 -33,-282 114,-105 330,-121 420,33 91,155 379,480 476,575 97,95 310,289 480,234 169,-56 145,-298 132,-414 -13,-117 -159,-392 -225,-498 -66,-106 -242,-137 -568,-106 -281,27 -483,84 -736,-55z"/>
      <g>
       <path class="fil10" d="M2779 2520l485 -68c-86,83 -98,178 -40,284l-445 -216z"/>
       <path class="fil11" d="M3264 2452c784,119 1569,237 2353,356 29,4 75,25 70,60 -8,62 -7,74 -20,167 -5,38 -30,72 -100,66l-2343 -365c-61,-107 -43,-201 40,-284z"/>
       <polygon class="fil12" points="2954,2605 2969,2493 2779,2520 "/>
       <path class="fil13" d="M2969 2493l-15 112 270 131c-33,-59 -43,-114 -31,-165 0,0 0,0 0,0 9,-42 33,-82 71,-119l-295 41z"/>
       <polygon class="fil14" points="5342,2766 5302,3059 5261,3053 5301,2761 "/>
       <polygon class="fil15" points="5428,2779 5388,3072 5346,3066 5387,2774 "/>
       <polygon class="fil14" points="5512,2792 5472,3085 5431,3079 5471,2787 "/>
       <path class="fil16" d="M5512 2792l-40 293 -41 -6 136 22c70,6 95,-28 100,-66 13,-93 12,-105 20,-167 5,-35 -41,-56 -70,-60l-105 -16z"/>
      </g>
      <path class="fil9" d="M4267 2817c-59,-89 -161,-116 -257,-99 -59,10 -130,51 -157,76 -27,25 -22,28 -29,40l41 100 359 77 101 -99 -58 -95 0 0 0 0z"/>
     </g>
     <polygon class="fil17" points="6140,6317 5189,5260 6396,4107 7004,4600 6921,6309 "/>
    </g>
   </g>
  </g>
  <polygon class="fil10" points="3399,0 5098,981 6797,1962 6797,3924 6797,5887 5098,6868 3399,7849 1699,6868 0,5887 0,3924 0,1962 1699,981 "/>
 </g>
</svg>
