<?xml version="1.0" encoding="UTF-8"?>
<!DOCTYPE svg PUBLIC "-//W3C//DTD SVG 1.1//EN" "http://www.w3.org/Graphics/SVG/1.1/DTD/svg11.dtd">
<!-- Creator: CorelDRAW X8 -->
<svg xmlns="http://www.w3.org/2000/svg" xml:space="preserve" width="0.864583in" height="0.864583in" version="1.1" style="shape-rendering:geometricPrecision; text-rendering:geometricPrecision; image-rendering:optimizeQuality; fill-rule:evenodd; clip-rule:evenodd"
viewBox="0 0 110 110"
 xmlns:xlink="http://www.w3.org/1999/xlink">
 <defs>
  <style type="text/css">
   <![CDATA[
    .fil12 {fill:none}
    .fil6 {fill:#009AC1}
    .fil10 {fill:#374950}
    .fil0 {fill:#9ACE5B}
    .fil3 {fill:#BF4530}
    .fil11 {fill:#CCC9C3}
    .fil5 {fill:#E84C3D}
    .fil2 {fill:#EBB88B}
    .fil9 {fill:#ECF0F5}
    .fil1 {fill:#F8C293}
    .fil4 {fill:#FF6262}
    .fil7 {fill:white}
    .fil8 {fill:white;fill-rule:nonzero}
   ]]>
  </style>
   <clipPath id="id0">
    <path d="M55 0c31,0 55,25 55,55 0,31 -24,55 -55,55 -30,0 -55,-24 -55,-55 0,-30 25,-55 55,-55z"/>
   </clipPath>
 </defs>
 <g id="Layer_x0020_1">
  <metadata id="CorelCorpID_0Corel-Layer"/>
  <path class="fil0" d="M55 0c31,0 55,25 55,55 0,31 -24,55 -55,55 -30,0 -55,-24 -55,-55 0,-30 25,-55 55,-55z"/>
  <g style="clip-path:url(#id0)">
   <g id="_827753803632">
    <g>
     <path id="1" class="fil1" d="M59 33l5 -15c0,0 1,-4 5,-5 5,0 13,0 13,0l1 -1 4 10 -1 0c0,0 -2,2 -3,3 -1,2 -3,3 -6,4 -3,2 -5,5 -6,6 -1,1 -3,3 -4,4 0,0 -1,1 -2,1 -1,-1 -1,-2 -1,-3 0,-1 6,-9 6,-9 0,0 2,-2 2,-2 0,-1 1,-3 0,-3 -2,-1 -3,-2 -3,-1 -1,0 -3,7 -3,7l-3 5 -4 -1z"/>
     <path class="fil2" d="M50 32l12 -8 2 -6c0,0 0,-1 1,-3 -1,1 -3,2 -3,2 0,0 -14,12 -15,12 0,1 0,2 1,2 0,1 1,1 2,1z"/>
     <path class="fil2" d="M52 26c4,-4 10,-9 10,-9 0,0 1,-1 2,-1 -3,1 -13,6 -16,7 -1,1 -1,2 -1,3 0,1 2,1 3,1l2 -1z"/>
     <path class="fil2" d="M52 21c4,-2 10,-4 12,-5 0,0 1,-1 1,-1 0,0 0,0 0,0 1,0 1,-1 2,-1 -5,2 -12,4 -14,4 0,0 -1,1 -1,2 0,1 0,1 0,1z"/>
     <polygon class="fil3" points="33,48 29,57 85,57 80,48 "/>
     <polygon class="fil4" points="29,57 29,59 85,60 85,57 "/>
     <rect class="fil4" x="31" y="59" width="51.8992" height="28.4863"/>
     <rect class="fil5" x="31" y="59" width="51.8992" height="1.44439"/>
     <rect class="fil6" x="40" y="64" width="32.6307" height="19.3984"/>
     <path class="fil7" d="M50 48l-2 5 16 0 2 -5 5 -11 -2 0c-1,1 -2,2 -2,2 0,0 -1,1 -2,1 -1,-1 -1,-2 -1,-3 0,0 0,-1 1,-2l-8 -3 -7 16z"/>
     <path class="fil8" d="M46 75l1 0c0,1 -1,1 -1,1 -1,1 -1,1 -2,1 -1,0 -1,0 -2,-1 0,0 -1,-1 -1,-2 0,-1 1,-2 1,-2 1,-1 1,-1 2,-1 1,0 2,0 2,1 1,0 1,1 1,2 0,0 0,0 0,0l-5 0c1,1 1,1 1,2 0,0 1,0 1,0 1,0 1,0 1,0 0,0 1,-1 1,-1zm-3 -2l3 0c0,0 0,-1 -1,-1 0,0 0,0 -1,0 0,0 -1,0 -1,0 0,0 0,1 0,1zm5 1l0 -1 3 0 0 1 -3 0zm5 3l-2 -6 1 0 1 3c1,1 1,1 1,2 0,-1 0,-1 0,-2l2 -3 1 0 -3 6 -1 0zm4 -3c0,-1 0,-2 1,-3 0,0 1,0 2,0 1,0 1,0 2,1 0,0 0,1 0,2 0,1 0,1 0,2 0,0 0,0 -1,1 0,0 -1,0 -1,0 -1,0 -2,0 -2,-1 -1,0 -1,-1 -1,-2zm1 0c0,1 0,1 1,2 0,0 0,0 1,0 0,0 1,0 1,0 0,-1 0,-1 0,-2 0,-1 0,-1 0,-2 0,0 -1,0 -1,0 -1,0 -1,0 -1,0 -1,1 -1,1 -1,2zm8 2l0 1c0,0 -1,0 -1,0 0,0 0,0 -1,0 0,0 0,-1 0,-1 0,0 0,0 0,-1l0 -3 -1 0 0 -1 1 0 0 -2 1 0 0 2 1 0 0 1 -1 0 0 3c0,0 0,1 0,1 0,0 0,0 0,0 0,0 0,0 0,0 0,0 1,0 1,0zm5 -1l1 0c0,1 -1,1 -1,1 -1,1 -1,1 -2,1 -1,0 -1,0 -2,-1 0,0 -1,-1 -1,-2 0,-1 1,-2 1,-2 1,-1 1,-1 2,-1 1,0 2,0 2,1 1,0 1,1 1,2 0,0 0,0 0,0l-5 0c0,1 1,1 1,2 0,0 1,0 1,0 1,0 1,0 1,0 0,0 1,-1 1,-1zm-4 -2l4 0c0,0 0,-1 -1,-1 0,0 0,0 -1,0 0,0 -1,0 -1,0 0,0 0,1 -1,1z"/>
     <polygon class="fil9" points="84,11 82,12 87,23 88,22 "/>
     <polygon class="fil10" points="88,22 89,24 103,18 99,4 83,9 "/>
     <circle class="fil9" cx="90" cy="22" r="1"/>
     <circle class="fil9" cx="91" cy="21" r="1"/>
    </g>
   </g>
  </g>
  <path class="fil12" d="M55 0c31,0 55,25 55,55 0,31 -24,55 -55,55 -30,0 -55,-24 -55,-55 0,-30 25,-55 55,-55z"/>
 </g>
</svg>
