<?xml version="1.0" encoding="UTF-8"?>
<!DOCTYPE svg PUBLIC "-//W3C//DTD SVG 1.1//EN" "http://www.w3.org/Graphics/SVG/1.1/DTD/svg11.dtd">
<!-- Creator: CorelDRAW X8 -->
<svg xmlns="http://www.w3.org/2000/svg" xml:space="preserve" width="0.666661in" height="0.666661in" version="1.1" style="shape-rendering:geometricPrecision; text-rendering:geometricPrecision; image-rendering:optimizeQuality; fill-rule:evenodd; clip-rule:evenodd"
viewBox="0 0 689 689"
 xmlns:xlink="http://www.w3.org/1999/xlink">
 <defs>
  <style type="text/css">
   <![CDATA[
    .fil0 {fill:#134151}
    .fil1 {fill:#ECF0F5}
   ]]>
  </style>
 </defs>
 <g id="Layer_x0020_1">
  <metadata id="CorelCorpID_0Corel-Layer"/>
  <circle class="fil0" cx="344" cy="344" r="344"/>
  <path class="fil1" d="M413 379c-14,8 -17,15 -17,28 0,72 5,67 -60,67 -112,0 -104,13 -103,-69 0,-29 0,-58 0,-87 0,-72 -10,-61 113,-61 45,0 49,-3 50,35 4,-2 13,-10 15,-13 2,-2 15,-50 -29,-49l-2 4c-8,19 -14,13 -65,13 -77,0 -55,3 -68,-17 -32,-1 -32,18 -32,47l0 153c0,84 -8,64 164,66 30,0 35,-12 35,-41 0,-25 0,-51 -1,-76zm-151 -81l-2 -1c-5,-5 -3,-5 -10,-7 -8,8 3,9 10,23 8,-4 23,-21 26,-28l-5 -4c-7,3 -14,12 -19,17zm0 59c-6,-4 -3,-7 -12,-8l-3 3c4,10 6,5 13,19 8,-5 23,-21 26,-29l-4 -3c-9,4 -14,12 -20,18zm-2 72c8,-5 11,-9 16,-15 12,-13 11,-9 8,-16 -7,-2 -5,1 -12,7 -4,4 -6,5 -10,9l-3 -2c0,0 -1,-1 -1,-1 -1,-2 -2,-5 -7,-4 -10,2 4,14 9,22zm98 -12c-5,-7 -10,-12 -16,-18 -7,-7 -11,-12 -18,-16l-17 51 51 -17zm61 -131c4,8 27,32 35,35 4,-4 15,-14 18,-19 6,-12 -4,-19 -10,-24 -23,-23 -22,-9 -43,8zm-105 -86c7,0 12,6 12,12 0,7 -5,12 -12,12 -6,0 -11,-5 -11,-12 0,-6 5,-12 11,-12zm-56 37l99 2c11,0 14,2 15,-7 5,-28 -47,-46 -77,-37 -13,4 -18,7 -27,14 -10,7 -14,9 -10,28zm75 137c3,5 3,5 8,9 10,9 16,20 26,24 8,-5 13,-12 20,-19 12,-13 54,-50 57,-59l-32 -33c-8,3 -75,72 -79,78z"/>
 </g>
</svg>
