<?xml version="1.0" encoding="UTF-8"?>
<!DOCTYPE svg PUBLIC "-//W3C//DTD SVG 1.1//EN" "http://www.w3.org/Graphics/SVG/1.1/DTD/svg11.dtd">
<!-- Creator: CorelDRAW X8 -->
<svg xmlns="http://www.w3.org/2000/svg" xml:space="preserve" width="1.38893in" height="1.38893in" version="1.1" style="shape-rendering:geometricPrecision; text-rendering:geometricPrecision; image-rendering:optimizeQuality; fill-rule:evenodd; clip-rule:evenodd"
viewBox="0 0 263 263"
 xmlns:xlink="http://www.w3.org/1999/xlink">
 <defs>
  <style type="text/css">
   <![CDATA[
    .fil0 {fill:#374960}
    .fil1 {fill:white}
   ]]>
  </style>
 </defs>
 <g id="Layer_x0020_1">
  <metadata id="CorelCorpID_0Corel-Layer"/>
  <circle class="fil0" cx="132" cy="132" r="132"/>
  <path class="fil1" d="M155 158c-14,11 -30,13 -45,3 -4,-2 -3,-2 -6,-4 -5,-4 -9,-12 -11,-19 -1,-3 -1,-5 -1,-9 -1,-7 -11,-6 -10,3 1,5 1,7 2,11 4,13 12,22 24,29 12,7 29,7 42,0l7 -4c7,-5 12,-10 16,-18 3,-8 3,-11 4,-18 2,-11 -4,-25 -11,-33 -6,-8 -19,-16 -28,-16 0,-2 7,-9 9,-11 5,-6 -1,-11 -6,-9 -1,1 -6,8 -8,10l-7 9c-3,2 -3,1 -3,6l11 20c4,9 11,4 11,0 0,-2 -6,-12 -8,-16 8,2 12,4 17,9 4,3 2,2 4,4 10,10 12,28 6,41 -3,5 -6,8 -9,12z"/>
 </g>
</svg>
