<?xml version="1.0" encoding="UTF-8"?>
<!DOCTYPE svg PUBLIC "-//W3C//DTD SVG 1.1//EN" "http://www.w3.org/Graphics/SVG/1.1/DTD/svg11.dtd">
<!-- Creator: CorelDRAW X8 -->
<svg xmlns="http://www.w3.org/2000/svg" xml:space="preserve" width="1.0119in" height="1.0119in" version="1.1" style="shape-rendering:geometricPrecision; text-rendering:geometricPrecision; image-rendering:optimizeQuality; fill-rule:evenodd; clip-rule:evenodd"
viewBox="0 0 186 186"
 xmlns:xlink="http://www.w3.org/1999/xlink">
 <defs>
  <style type="text/css">
   <![CDATA[
    .fil2 {fill:#373435}
    .fil0 {fill:#C75C5C}
    .fil1 {fill:#F8C293}
   ]]>
  </style>
 </defs>
 <g id="Layer_x0020_1">
  <metadata id="CorelCorpID_0Corel-Layer"/>
  <path class="fil0" d="M0 93c0,26 10,49 27,66 17,16 40,27 66,27 26,0 49,-11 66,-27 16,-17 27,-40 27,-66 0,-26 -11,-49 -27,-66 -17,-17 -40,-27 -66,-27 -26,0 -49,10 -66,27 -17,17 -27,40 -27,66z"/>
  <g id="_41697516928">
   <path class="fil1" d="M94 114c3,0 6,3 6,7 0,3 -3,6 -6,6 -4,0 -7,-3 -7,-6 0,-4 3,-7 7,-7zm-6 -12c0,0 0,0 0,0 0,-1 -1,-2 -1,-3l0 -5c0,-2 0,-4 0,-6l0 -9c0,-1 0,-1 0,-1l0 -3c0,-3 3,-6 6,-6l0 0c3,0 6,3 6,6l0 24c0,3 -3,5 -6,5l0 0c-2,0 -3,0 -4,-2 0,0 -1,0 -1,0zm-51 34c5,9 14,7 24,7l63 0c11,0 20,2 25,-7 2,-8 -7,-20 -10,-26 -5,-8 -10,-16 -14,-24 -5,-8 -9,-15 -14,-24 -4,-6 -9,-19 -18,-20 -9,0 -14,13 -18,20l-28 48c-3,6 -12,18 -10,26z"/>
   <path class="fil2" d="M87 121c0,4 3,7 7,7 3,0 6,-3 6,-7 0,-4 -3,-7 -6,-7 -4,0 -7,3 -7,7z"/>
   <path class="fil2" d="M87 88c0,2 0,4 0,6l0 5c0,1 0,2 1,3l0 1 0 0c2,2 3,2 5,2 4,0 6,-2 6,-6l0 -24c0,-4 -2,-6 -6,-6 -3,0 -6,2 -6,6l0 2c0,0 0,1 0,1l0 10z"/>
  </g>
 </g>
</svg>
