<?xml version="1.0" encoding="UTF-8"?>
<!DOCTYPE svg PUBLIC "-//W3C//DTD SVG 1.1//EN" "http://www.w3.org/Graphics/SVG/1.1/DTD/svg11.dtd">
<!-- Creator: CorelDRAW X8 -->
<svg xmlns="http://www.w3.org/2000/svg" xml:space="preserve" width="2.28183in" height="2.28183in" version="1.1" style="shape-rendering:geometricPrecision; text-rendering:geometricPrecision; image-rendering:optimizeQuality; fill-rule:evenodd; clip-rule:evenodd"
viewBox="0 0 2631 2631"
 xmlns:xlink="http://www.w3.org/1999/xlink">
 <defs>
  <style type="text/css">
   <![CDATA[
    .fil0 {fill:#484757}
    .fil1 {fill:white}
   ]]>
  </style>
 </defs>
 <g id="Layer_x0020_1">
  <metadata id="CorelCorpID_0Corel-Layer"/>
  <circle class="fil0" cx="1315" cy="1315" r="1315"/>
  <path class="fil1" d="M1590 1601c-67,66 -156,110 -256,117 -97,0 -98,140 0,140 139,-7 263,-67 354,-158 99,-99 160,-235 160,-385 0,-150 -61,-286 -160,-385 -98,-98 -234,-159 -384,-159 -151,0 -287,61 -385,159 -71,71 -122,161 -145,262l-16 -3c-17,-1 -28,4 -19,27l45 126c26,72 16,75 62,17l79 -99c5,-6 10,-13 14,-19 12,-18 0,-22 -16,-24l-11 -2c18,-72 55,-136 106,-186 73,-73 174,-119 286,-119 111,0 213,46 286,119 73,73 118,174 118,286 0,112 -45,213 -118,286zm-255 -367c33,11 60,37 72,71l132 0c21,0 38,17 38,37l0 0c0,21 -17,38 -38,38l-132 0c-15,45 -58,79 -109,79 -64,0 -116,-52 -116,-116 0,-54 38,-100 89,-112l0 -198c0,-18 14,-32 32,-32l0 0c17,0 32,14 32,32l0 201z"/>
 </g>
</svg>
